5776
-7500 -7500 0
-7300 -7500 0
-7100 -7500 0
-6900 -7500 0
-6700 -7500 0
-6500 -7500 0
-6300 -7500 0
-6100 -7500 0
-5900 -7500 0
-5700 -7500 0
-5500 -7500 0
-5300 -7500 0
-5100 -7500 0
-4900 -7500 0
-4700 -7500 0
-4500 -7500 0
-4300 -7500 0
-4100 -7500 0
-3900 -7500 0
-3700 -7500 0
-3500 -7500 0
-3300 -7500 0
-3100 -7500 0
-2900 -7500 0
-2700 -7500 0
-2500 -7500 0
-2300 -7500 0
-2100 -7500 0
-1900 -7500 0
-1700 -7500 0
-1500 -7500 0
-1300 -7500 0
-1100 -7500 0
-900 -7500 0
-700 -7500 0
-500 -7500 0
-300 -7500 0
-100 -7500 0
100 -7500 0
300 -7500 0
500 -7500 0
700 -7500 0
900 -7500 0
1100 -7500 0
1300 -7500 0
1500 -7500 0
1700 -7500 0
1900 -7500 0
2100 -7500 0
2300 -7500 0
2500 -7500 0
2700 -7500 0
2900 -7500 0
3100 -7500 0
3300 -7500 0
3500 -7500 0
3700 -7500 0
3900 -7500 0
4100 -7500 0
4300 -7500 0
4500 -7500 0
4700 -7500 0
4900 -7500 0
5100 -7500 0
5300 -7500 0
5500 -7500 0
5700 -7500 0
5900 -7500 0
6100 -7500 0
6300 -7500 0
6500 -7500 0
6700 -7500 0
6900 -7500 0
7100 -7500 0
7300 -7500 0
7500 -7500 0
-7500 -7300 0
-7300 -7300 0
-7100 -7300 0
-6900 -7300 0
-6700 -7300 0
-6500 -7300 0
-6300 -7300 0
-6100 -7300 0
-5900 -7300 0
-5700 -7300 0
-5500 -7300 0
-5300 -7300 0
-5100 -7300 0
-4900 -7300 0
-4700 -7300 0
-4500 -7300 0
-4300 -7300 0
-4100 -7300 0
-3900 -7300 0
-3700 -7300 0
-3500 -7300 0
-3300 -7300 0
-3100 -7300 0
-2900 -7300 0
-2700 -7300 0
-2500 -7300 0
-2300 -7300 0
-2100 -7300 0
-1900 -7300 0
-1700 -7300 0
-1500 -7300 0
-1300 -7300 0
-1100 -7300 0
-900 -7300 0
-700 -7300 0
-500 -7300 0
-300 -7300 0
-100 -7300 0
100 -7300 0
300 -7300 0
500 -7300 0
700 -7300 0
900 -7300 0
1100 -7300 0
1300 -7300 0
1500 -7300 0
1700 -7300 0
1900 -7300 0
2100 -7300 0
2300 -7300 0
2500 -7300 0
2700 -7300 0
2900 -7300 0
3100 -7300 0
3300 -7300 0
3500 -7300 0
3700 -7300 0
3900 -7300 0
4100 -7300 0
4300 -7300 0
4500 -7300 0
4700 -7300 0
4900 -7300 0
5100 -7300 0
5300 -7300 0
5500 -7300 0
5700 -7300 0
5900 -7300 0
6100 -7300 0
6300 -7300 0
6500 -7300 0
6700 -7300 0
6900 -7300 0
7100 -7300 0
7300 -7300 0
7500 -7300 0
-7500 -7100 0
-7300 -7100 0
-7100 -7100 0
-6900 -7100 0
-6700 -7100 0
-6500 -7100 0
-6300 -7100 0
-6100 -7100 0
-5900 -7100 0
-5700 -7100 0
-5500 -7100 0
-5300 -7100 0
-5100 -7100 0
-4900 -7100 0
-4700 -7100 0
-4500 -7100 0
-4300 -7100 0
-4100 -7100 0
-3900 -7100 0
-3700 -7100 0
-3500 -7100 0
-3300 -7100 0
-3100 -7100 0
-2900 -7100 0
-2700 -7100 0
-2500 -7100 0
-2300 -7100 0
-2100 -7100 0
-1900 -7100 0
-1700 -7100 0
-1500 -7100 0
-1300 -7100 0
-1100 -7100 0
-900 -7100 0
-700 -7100 0
-500 -7100 0
-300 -7100 0
-100 -7100 0
100 -7100 0
300 -7100 0
500 -7100 0
700 -7100 0
900 -7100 0
1100 -7100 0
1300 -7100 0
1500 -7100 0
1700 -7100 0
1900 -7100 0
2100 -7100 0
2300 -7100 0
2500 -7100 0
2700 -7100 0
2900 -7100 0
3100 -7100 0
3300 -7100 0
3500 -7100 0
3700 -7100 0
3900 -7100 0
4100 -7100 0
4300 -7100 0
4500 -7100 0
4700 -7100 0
4900 -7100 0
5100 -7100 0
5300 -7100 0
5500 -7100 0
5700 -7100 0
5900 -7100 0
6100 -7100 0
6300 -7100 0
6500 -7100 0
6700 -7100 0
6900 -7100 0
7100 -7100 0
7300 -7100 0
7500 -7100 0
-7500 -6900 0
-7300 -6900 0
-7100 -6900 0
-6900 -6900 0
-6700 -6900 0
-6500 -6900 0
-6300 -6900 0
-6100 -6900 0
-5900 -6900 0
-5700 -6900 0
-5500 -6900 0
-5300 -6900 0
-5100 -6900 0
-4900 -6900 0
-4700 -6900 0
-4500 -6900 0
-4300 -6900 0
-4100 -6900 0
-3900 -6900 0
-3700 -6900 0
-3500 -6900 0
-3300 -6900 0
-3100 -6900 0
-2900 -6900 0
-2700 -6900 0
-2500 -6900 0
-2300 -6900 0
-2100 -6900 0
-1900 -6900 0
-1700 -6900 0
-1500 -6900 0
-1300 -6900 0
-1100 -6900 0
-900 -6900 0
-700 -6900 0
-500 -6900 0
-300 -6900 0
-100 -6900 0
100 -6900 0
300 -6900 0
500 -6900 0
700 -6900 0
900 -6900 0
1100 -6900 0
1300 -6900 0
1500 -6900 0
1700 -6900 0
1900 -6900 0
2100 -6900 0
2300 -6900 0
2500 -6900 0
2700 -6900 0
2900 -6900 0
3100 -6900 0
3300 -6900 0
3500 -6900 0
3700 -6900 0
3900 -6900 0
4100 -6900 0
4300 -6900 0
4500 -6900 0
4700 -6900 0
4900 -6900 0
5100 -6900 0
5300 -6900 0
5500 -6900 0
5700 -6900 0
5900 -6900 0
6100 -6900 0
6300 -6900 0
6500 -6900 0
6700 -6900 0
6900 -6900 0
7100 -6900 0
7300 -6900 0
7500 -6900 0
-7500 -6700 0
-7300 -6700 0
-7100 -6700 0
-6900 -6700 0
-6700 -6700 0
-6500 -6700 0
-6300 -6700 0
-6100 -6700 0
-5900 -6700 0
-5700 -6700 0
-5500 -6700 0
-5300 -6700 0
-5100 -6700 0
-4900 -6700 0
-4700 -6700 0
-4500 -6700 0
-4300 -6700 0
-4100 -6700 0
-3900 -6700 0
-3700 -6700 0
-3500 -6700 0
-3300 -6700 0
-3100 -6700 0
-2900 -6700 0
-2700 -6700 0
-2500 -6700 0
-2300 -6700 0
-2100 -6700 0
-1900 -6700 0
-1700 -6700 0
-1500 -6700 0
-1300 -6700 0
-1100 -6700 0
-900 -6700 0
-700 -6700 0
-500 -6700 0
-300 -6700 0
-100 -6700 0
100 -6700 0
300 -6700 0
500 -6700 0
700 -6700 0
900 -6700 0
1100 -6700 0
1300 -6700 0
1500 -6700 0
1700 -6700 0
1900 -6700 0
2100 -6700 0
2300 -6700 0
2500 -6700 0
2700 -6700 0
2900 -6700 0
3100 -6700 0
3300 -6700 0
3500 -6700 0
3700 -6700 0
3900 -6700 0
4100 -6700 0
4300 -6700 0
4500 -6700 0
4700 -6700 0
4900 -6700 0
5100 -6700 0
5300 -6700 0
5500 -6700 0
5700 -6700 0
5900 -6700 0
6100 -6700 0
6300 -6700 0
6500 -6700 0
6700 -6700 0
6900 -6700 0
7100 -6700 0
7300 -6700 0
7500 -6700 0
-7500 -6500 0
-7300 -6500 0
-7100 -6500 0
-6900 -6500 0
-6700 -6500 0
-6500 -6500 0
-6300 -6500 0
-6100 -6500 0
-5900 -6500 0
-5700 -6500 0
-5500 -6500 0
-5300 -6500 0
-5100 -6500 0
-4900 -6500 0
-4700 -6500 0
-4500 -6500 0
-4300 -6500 0
-4100 -6500 0
-3900 -6500 0
-3700 -6500 0
-3500 -6500 0
-3300 -6500 0
-3100 -6500 0
-2900 -6500 0
-2700 -6500 0
-2500 -6500 0
-2300 -6500 0
-2100 -6500 0
-1900 -6500 0
-1700 -6500 0
-1500 -6500 0
-1300 -6500 0
-1100 -6500 0
-900 -6500 0
-700 -6500 0
-500 -6500 0
-300 -6500 0
-100 -6500 0
100 -6500 0
300 -6500 0
500 -6500 0
700 -6500 0
900 -6500 0
1100 -6500 0
1300 -6500 0
1500 -6500 0
1700 -6500 0
1900 -6500 0
2100 -6500 0
2300 -6500 0
2500 -6500 0
2700 -6500 0
2900 -6500 0
3100 -6500 0
3300 -6500 0
3500 -6500 0
3700 -6500 0
3900 -6500 0
4100 -6500 0
4300 -6500 0
4500 -6500 0
4700 -6500 0
4900 -6500 0
5100 -6500 0
5300 -6500 0
5500 -6500 0
5700 -6500 0
5900 -6500 0
6100 -6500 0
6300 -6500 0
6500 -6500 0
6700 -6500 0
6900 -6500 0
7100 -6500 0
7300 -6500 0
7500 -6500 0
-7500 -6300 0
-7300 -6300 0
-7100 -6300 0
-6900 -6300 0
-6700 -6300 0
-6500 -6300 0
-6300 -6300 0
-6100 -6300 0
-5900 -6300 0
-5700 -6300 0
-5500 -6300 0
-5300 -6300 0
-5100 -6300 0
-4900 -6300 0
-4700 -6300 0
-4500 -6300 0
-4300 -6300 0
-4100 -6300 0
-3900 -6300 0
-3700 -6300 0
-3500 -6300 0
-3300 -6300 0
-3100 -6300 0
-2900 -6300 0
-2700 -6300 0
-2500 -6300 0
-2300 -6300 0
-2100 -6300 0
-1900 -6300 0
-1700 -6300 0
-1500 -6300 0
-1300 -6300 0
-1100 -6300 0
-900 -6300 0
-700 -6300 0
-500 -6300 0
-300 -6300 0
-100 -6300 0
100 -6300 0
300 -6300 0
500 -6300 0
700 -6300 0
900 -6300 0
1100 -6300 0
1300 -6300 0
1500 -6300 0
1700 -6300 0
1900 -6300 0
2100 -6300 0
2300 -6300 0
2500 -6300 0
2700 -6300 0
2900 -6300 0
3100 -6300 0
3300 -6300 0
3500 -6300 0
3700 -6300 0
3900 -6300 0
4100 -6300 0
4300 -6300 0
4500 -6300 0
4700 -6300 0
4900 -6300 0
5100 -6300 0
5300 -6300 0
5500 -6300 0
5700 -6300 0
5900 -6300 0
6100 -6300 0
6300 -6300 0
6500 -6300 0
6700 -6300 0
6900 -6300 0
7100 -6300 0
7300 -6300 0
7500 -6300 0
-7500 -6100 0
-7300 -6100 0
-7100 -6100 0
-6900 -6100 0
-6700 -6100 0
-6500 -6100 0
-6300 -6100 0
-6100 -6100 0
-5900 -6100 0
-5700 -6100 0
-5500 -6100 0
-5300 -6100 0
-5100 -6100 0
-4900 -6100 0
-4700 -6100 0
-4500 -6100 0
-4300 -6100 0
-4100 -6100 0
-3900 -6100 0
-3700 -6100 0
-3500 -6100 0
-3300 -6100 0
-3100 -6100 0
-2900 -6100 0
-2700 -6100 0
-2500 -6100 0
-2300 -6100 0
-2100 -6100 0
-1900 -6100 0
-1700 -6100 0
-1500 -6100 0
-1300 -6100 0
-1100 -6100 0
-900 -6100 0
-700 -6100 0
-500 -6100 0
-300 -6100 0
-100 -6100 0
100 -6100 0
300 -6100 0
500 -6100 0
700 -6100 0
900 -6100 0
1100 -6100 0
1300 -6100 0
1500 -6100 0
1700 -6100 0
1900 -6100 0
2100 -6100 0
2300 -6100 0
2500 -6100 0
2700 -6100 0
2900 -6100 0
3100 -6100 0
3300 -6100 0
3500 -6100 0
3700 -6100 0
3900 -6100 0
4100 -6100 0
4300 -6100 0
4500 -6100 0
4700 -6100 0
4900 -6100 0
5100 -6100 0
5300 -6100 0
5500 -6100 0
5700 -6100 0
5900 -6100 0
6100 -6100 0
6300 -6100 0
6500 -6100 0
6700 -6100 0
6900 -6100 0
7100 -6100 0
7300 -6100 0
7500 -6100 0
-7500 -5900 0
-7300 -5900 0
-7100 -5900 0
-6900 -5900 0
-6700 -5900 0
-6500 -5900 0
-6300 -5900 0
-6100 -5900 0
-5900 -5900 0
-5700 -5900 0
-5500 -5900 0
-5300 -5900 0
-5100 -5900 0
-4900 -5900 0
-4700 -5900 0
-4500 -5900 0
-4300 -5900 0
-4100 -5900 0
-3900 -5900 0
-3700 -5900 0
-3500 -5900 0
-3300 -5900 0
-3100 -5900 0
-2900 -5900 0
-2700 -5900 0
-2500 -5900 0
-2300 -5900 0
-2100 -5900 0
-1900 -5900 0
-1700 -5900 0
-1500 -5900 0
-1300 -5900 0
-1100 -5900 0
-900 -5900 0
-700 -5900 0
-500 -5900 0
-300 -5900 0
-100 -5900 0
100 -5900 0
300 -5900 0
500 -5900 0
700 -5900 0
900 -5900 0
1100 -5900 0
1300 -5900 0
1500 -5900 0
1700 -5900 0
1900 -5900 0
2100 -5900 0
2300 -5900 0
2500 -5900 0
2700 -5900 0
2900 -5900 0
3100 -5900 0
3300 -5900 0
3500 -5900 0
3700 -5900 0
3900 -5900 0
4100 -5900 0
4300 -5900 0
4500 -5900 0
4700 -5900 0
4900 -5900 0
5100 -5900 0
5300 -5900 0
5500 -5900 0
5700 -5900 0
5900 -5900 0
6100 -5900 0
6300 -5900 0
6500 -5900 0
6700 -5900 0
6900 -5900 0
7100 -5900 0
7300 -5900 0
7500 -5900 0
-7500 -5700 0
-7300 -5700 0
-7100 -5700 0
-6900 -5700 0
-6700 -5700 0
-6500 -5700 0
-6300 -5700 0
-6100 -5700 0
-5900 -5700 0
-5700 -5700 0
-5500 -5700 0
-5300 -5700 0
-5100 -5700 0
-4900 -5700 0
-4700 -5700 0
-4500 -5700 0
-4300 -5700 0
-4100 -5700 0
-3900 -5700 0
-3700 -5700 0
-3500 -5700 0
-3300 -5700 0
-3100 -5700 0
-2900 -5700 0
-2700 -5700 0
-2500 -5700 0
-2300 -5700 0
-2100 -5700 0
-1900 -5700 0
-1700 -5700 0
-1500 -5700 0
-1300 -5700 0
-1100 -5700 0
-900 -5700 0
-700 -5700 0
-500 -5700 0
-300 -5700 0
-100 -5700 0
100 -5700 0
300 -5700 0
500 -5700 0
700 -5700 0
900 -5700 0
1100 -5700 0
1300 -5700 0
1500 -5700 0
1700 -5700 0
1900 -5700 0
2100 -5700 0
2300 -5700 0
2500 -5700 0
2700 -5700 0
2900 -5700 0
3100 -5700 0
3300 -5700 0
3500 -5700 0
3700 -5700 0
3900 -5700 0
4100 -5700 0
4300 -5700 0
4500 -5700 0
4700 -5700 0
4900 -5700 0
5100 -5700 0
5300 -5700 0
5500 -5700 0
5700 -5700 0
5900 -5700 0
6100 -5700 0
6300 -5700 0
6500 -5700 0
6700 -5700 0
6900 -5700 0
7100 -5700 0
7300 -5700 0
7500 -5700 0
-7500 -5500 0
-7300 -5500 0
-7100 -5500 0
-6900 -5500 0
-6700 -5500 0
-6500 -5500 0
-6300 -5500 0
-6100 -5500 0
-5900 -5500 0
-5700 -5500 0
-5500 -5500 0
-5300 -5500 0
-5100 -5500 0
-4900 -5500 0
-4700 -5500 0
-4500 -5500 0
-4300 -5500 0
-4100 -5500 0
-3900 -5500 0
-3700 -5500 0
-3500 -5500 0
-3300 -5500 0
-3100 -5500 0
-2900 -5500 0
-2700 -5500 0
-2500 -5500 0
-2300 -5500 0
-2100 -5500 0
-1900 -5500 0
-1700 -5500 0
-1500 -5500 0
-1300 -5500 0
-1100 -5500 0
-900 -5500 0
-700 -5500 0
-500 -5500 0
-300 -5500 0
-100 -5500 0
100 -5500 0
300 -5500 0
500 -5500 0
700 -5500 0
900 -5500 0
1100 -5500 0
1300 -5500 0
1500 -5500 0
1700 -5500 0
1900 -5500 0
2100 -5500 0
2300 -5500 0
2500 -5500 0
2700 -5500 0
2900 -5500 0
3100 -5500 0
3300 -5500 0
3500 -5500 0
3700 -5500 0
3900 -5500 0
4100 -5500 0
4300 -5500 0
4500 -5500 0
4700 -5500 0
4900 -5500 0
5100 -5500 0
5300 -5500 0
5500 -5500 0
5700 -5500 0
5900 -5500 0
6100 -5500 0
6300 -5500 0
6500 -5500 0
6700 -5500 0
6900 -5500 0
7100 -5500 0
7300 -5500 0
7500 -5500 0
-7500 -5300 0
-7300 -5300 0
-7100 -5300 0
-6900 -5300 0
-6700 -5300 0
-6500 -5300 0
-6300 -5300 0
-6100 -5300 0
-5900 -5300 0
-5700 -5300 0
-5500 -5300 0
-5300 -5300 0
-5100 -5300 0
-4900 -5300 0
-4700 -5300 0
-4500 -5300 0
-4300 -5300 0
-4100 -5300 0
-3900 -5300 0
-3700 -5300 0
-3500 -5300 0
-3300 -5300 0
-3100 -5300 0
-2900 -5300 0
-2700 -5300 0
-2500 -5300 0
-2300 -5300 0
-2100 -5300 0
-1900 -5300 0
-1700 -5300 0
-1500 -5300 0
-1300 -5300 0
-1100 -5300 0
-900 -5300 0
-700 -5300 0
-500 -5300 0
-300 -5300 0
-100 -5300 0
100 -5300 0
300 -5300 0
500 -5300 0
700 -5300 0
900 -5300 0
1100 -5300 0
1300 -5300 0
1500 -5300 0
1700 -5300 0
1900 -5300 0
2100 -5300 0
2300 -5300 0
2500 -5300 0
2700 -5300 0
2900 -5300 0
3100 -5300 0
3300 -5300 0
3500 -5300 0
3700 -5300 0
3900 -5300 0
4100 -5300 0
4300 -5300 0
4500 -5300 0
4700 -5300 0
4900 -5300 0
5100 -5300 0
5300 -5300 0
5500 -5300 0
5700 -5300 0
5900 -5300 0
6100 -5300 0
6300 -5300 0
6500 -5300 0
6700 -5300 0
6900 -5300 0
7100 -5300 0
7300 -5300 0
7500 -5300 0
-7500 -5100 0
-7300 -5100 0
-7100 -5100 0
-6900 -5100 0
-6700 -5100 0
-6500 -5100 0
-6300 -5100 0
-6100 -5100 0
-5900 -5100 0
-5700 -5100 0
-5500 -5100 0
-5300 -5100 0
-5100 -5100 0
-4900 -5100 0
-4700 -5100 0
-4500 -5100 0
-4300 -5100 0
-4100 -5100 0
-3900 -5100 0
-3700 -5100 0
-3500 -5100 0
-3300 -5100 0
-3100 -5100 0
-2900 -5100 0
-2700 -5100 0
-2500 -5100 0
-2300 -5100 0
-2100 -5100 0
-1900 -5100 0
-1700 -5100 0
-1500 -5100 0
-1300 -5100 0
-1100 -5100 0
-900 -5100 0
-700 -5100 0
-500 -5100 0
-300 -5100 0
-100 -5100 0
100 -5100 0
300 -5100 0
500 -5100 0
700 -5100 0
900 -5100 0
1100 -5100 0
1300 -5100 0
1500 -5100 0
1700 -5100 0
1900 -5100 0
2100 -5100 0
2300 -5100 0
2500 -5100 0
2700 -5100 0
2900 -5100 0
3100 -5100 0
3300 -5100 0
3500 -5100 0
3700 -5100 0
3900 -5100 0
4100 -5100 0
4300 -5100 0
4500 -5100 0
4700 -5100 0
4900 -5100 0
5100 -5100 0
5300 -5100 0
5500 -5100 0
5700 -5100 0
5900 -5100 0
6100 -5100 0
6300 -5100 0
6500 -5100 0
6700 -5100 0
6900 -5100 0
7100 -5100 0
7300 -5100 0
7500 -5100 0
-7500 -4900 0
-7300 -4900 0
-7100 -4900 0
-6900 -4900 0
-6700 -4900 0
-6500 -4900 0
-6300 -4900 0
-6100 -4900 0
-5900 -4900 0
-5700 -4900 0
-5500 -4900 0
-5300 -4900 0
-5100 -4900 0
-4900 -4900 0
-4700 -4900 0
-4500 -4900 0
-4300 -4900 0
-4100 -4900 0
-3900 -4900 0
-3700 -4900 0
-3500 -4900 0
-3300 -4900 0
-3100 -4900 0
-2900 -4900 0
-2700 -4900 0
-2500 -4900 0
-2300 -4900 0
-2100 -4900 0
-1900 -4900 0
-1700 -4900 0
-1500 -4900 0
-1300 -4900 0
-1100 -4900 0
-900 -4900 0
-700 -4900 0
-500 -4900 0
-300 -4900 0
-100 -4900 0
100 -4900 0
300 -4900 0
500 -4900 0
700 -4900 0
900 -4900 0
1100 -4900 0
1300 -4900 0
1500 -4900 0
1700 -4900 0
1900 -4900 0
2100 -4900 0
2300 -4900 0
2500 -4900 0
2700 -4900 0
2900 -4900 0
3100 -4900 0
3300 -4900 0
3500 -4900 0
3700 -4900 0
3900 -4900 0
4100 -4900 0
4300 -4900 0
4500 -4900 0
4700 -4900 0
4900 -4900 0
5100 -4900 0
5300 -4900 0
5500 -4900 0
5700 -4900 0
5900 -4900 0
6100 -4900 0
6300 -4900 0
6500 -4900 0
6700 -4900 0
6900 -4900 0
7100 -4900 0
7300 -4900 0
7500 -4900 0
-7500 -4700 0
-7300 -4700 0
-7100 -4700 0
-6900 -4700 0
-6700 -4700 0
-6500 -4700 0
-6300 -4700 0
-6100 -4700 0
-5900 -4700 0
-5700 -4700 0
-5500 -4700 0
-5300 -4700 0
-5100 -4700 0
-4900 -4700 0
-4700 -4700 0
-4500 -4700 0
-4300 -4700 0
-4100 -4700 0
-3900 -4700 0
-3700 -4700 0
-3500 -4700 0
-3300 -4700 0
-3100 -4700 0
-2900 -4700 0
-2700 -4700 0
-2500 -4700 0
-2300 -4700 0
-2100 -4700 0
-1900 -4700 0
-1700 -4700 0
-1500 -4700 0
-1300 -4700 0
-1100 -4700 0
-900 -4700 0
-700 -4700 0
-500 -4700 0
-300 -4700 0
-100 -4700 0
100 -4700 0
300 -4700 0
500 -4700 0
700 -4700 0
900 -4700 0
1100 -4700 0
1300 -4700 0
1500 -4700 0
1700 -4700 0
1900 -4700 0
2100 -4700 0
2300 -4700 0
2500 -4700 0
2700 -4700 0
2900 -4700 0
3100 -4700 0
3300 -4700 0
3500 -4700 0
3700 -4700 0
3900 -4700 0
4100 -4700 0
4300 -4700 0
4500 -4700 0
4700 -4700 0
4900 -4700 0
5100 -4700 0
5300 -4700 0
5500 -4700 0
5700 -4700 0
5900 -4700 0
6100 -4700 0
6300 -4700 0
6500 -4700 0
6700 -4700 0
6900 -4700 0
7100 -4700 0
7300 -4700 0
7500 -4700 0
-7500 -4500 0
-7300 -4500 0
-7100 -4500 0
-6900 -4500 0
-6700 -4500 0
-6500 -4500 0
-6300 -4500 0
-6100 -4500 0
-5900 -4500 0
-5700 -4500 0
-5500 -4500 0
-5300 -4500 0
-5100 -4500 0
-4900 -4500 0
-4700 -4500 0
-4500 -4500 0
-4300 -4500 0
-4100 -4500 0
-3900 -4500 0
-3700 -4500 0
-3500 -4500 0
-3300 -4500 0
-3100 -4500 0
-2900 -4500 0
-2700 -4500 0
-2500 -4500 0
-2300 -4500 0
-2100 -4500 0
-1900 -4500 0
-1700 -4500 0
-1500 -4500 0
-1300 -4500 0
-1100 -4500 0
-900 -4500 0
-700 -4500 0
-500 -4500 0
-300 -4500 0
-100 -4500 0
100 -4500 0
300 -4500 0
500 -4500 0
700 -4500 0
900 -4500 0
1100 -4500 0
1300 -4500 0
1500 -4500 0
1700 -4500 0
1900 -4500 0
2100 -4500 0
2300 -4500 0
2500 -4500 0
2700 -4500 0
2900 -4500 0
3100 -4500 0
3300 -4500 0
3500 -4500 0
3700 -4500 0
3900 -4500 0
4100 -4500 0
4300 -4500 0
4500 -4500 0
4700 -4500 0
4900 -4500 0
5100 -4500 0
5300 -4500 0
5500 -4500 0
5700 -4500 0
5900 -4500 0
6100 -4500 0
6300 -4500 0
6500 -4500 0
6700 -4500 0
6900 -4500 0
7100 -4500 0
7300 -4500 0
7500 -4500 0
-7500 -4300 0
-7300 -4300 0
-7100 -4300 0
-6900 -4300 0
-6700 -4300 0
-6500 -4300 0
-6300 -4300 0
-6100 -4300 0
-5900 -4300 0
-5700 -4300 0
-5500 -4300 0
-5300 -4300 0
-5100 -4300 0
-4900 -4300 0
-4700 -4300 0
-4500 -4300 0
-4300 -4300 0
-4100 -4300 0
-3900 -4300 0
-3700 -4300 0
-3500 -4300 0
-3300 -4300 0
-3100 -4300 0
-2900 -4300 0
-2700 -4300 0
-2500 -4300 0
-2300 -4300 0
-2100 -4300 0
-1900 -4300 0
-1700 -4300 0
-1500 -4300 0
-1300 -4300 0
-1100 -4300 0
-900 -4300 0
-700 -4300 0
-500 -4300 0
-300 -4300 0
-100 -4300 0
100 -4300 0
300 -4300 0
500 -4300 0
700 -4300 0
900 -4300 0
1100 -4300 0
1300 -4300 0
1500 -4300 0
1700 -4300 0
1900 -4300 0
2100 -4300 0
2300 -4300 0
2500 -4300 0
2700 -4300 0
2900 -4300 0
3100 -4300 0
3300 -4300 0
3500 -4300 0
3700 -4300 0
3900 -4300 0
4100 -4300 0
4300 -4300 0
4500 -4300 0
4700 -4300 0
4900 -4300 0
5100 -4300 0
5300 -4300 0
5500 -4300 0
5700 -4300 0
5900 -4300 0
6100 -4300 0
6300 -4300 0
6500 -4300 0
6700 -4300 0
6900 -4300 0
7100 -4300 0
7300 -4300 0
7500 -4300 0
-7500 -4100 0
-7300 -4100 0
-7100 -4100 0
-6900 -4100 0
-6700 -4100 0
-6500 -4100 0
-6300 -4100 0
-6100 -4100 0
-5900 -4100 0
-5700 -4100 0
-5500 -4100 0
-5300 -4100 0
-5100 -4100 0
-4900 -4100 0
-4700 -4100 0
-4500 -4100 0
-4300 -4100 0
-4100 -4100 0
-3900 -4100 0
-3700 -4100 0
-3500 -4100 0
-3300 -4100 0
-3100 -4100 0
-2900 -4100 0
-2700 -4100 0
-2500 -4100 0
-2300 -4100 0
-2100 -4100 0
-1900 -4100 0
-1700 -4100 0
-1500 -4100 0
-1300 -4100 0
-1100 -4100 0
-900 -4100 0
-700 -4100 0
-500 -4100 0
-300 -4100 0
-100 -4100 0
100 -4100 0
300 -4100 0
500 -4100 0
700 -4100 0
900 -4100 0
1100 -4100 0
1300 -4100 0
1500 -4100 0
1700 -4100 0
1900 -4100 0
2100 -4100 0
2300 -4100 0
2500 -4100 0
2700 -4100 0
2900 -4100 0
3100 -4100 0
3300 -4100 0
3500 -4100 0
3700 -4100 0
3900 -4100 0
4100 -4100 0
4300 -4100 0
4500 -4100 0
4700 -4100 0
4900 -4100 0
5100 -4100 0
5300 -4100 0
5500 -4100 0
5700 -4100 0
5900 -4100 0
6100 -4100 0
6300 -4100 0
6500 -4100 0
6700 -4100 0
6900 -4100 0
7100 -4100 0
7300 -4100 0
7500 -4100 0
-7500 -3900 0
-7300 -3900 0
-7100 -3900 0
-6900 -3900 0
-6700 -3900 0
-6500 -3900 0
-6300 -3900 0
-6100 -3900 0
-5900 -3900 0
-5700 -3900 0
-5500 -3900 0
-5300 -3900 0
-5100 -3900 0
-4900 -3900 0
-4700 -3900 0
-4500 -3900 0
-4300 -3900 0
-4100 -3900 0
-3900 -3900 0
-3700 -3900 0
-3500 -3900 0
-3300 -3900 0
-3100 -3900 0
-2900 -3900 0
-2700 -3900 0
-2500 -3900 0
-2300 -3900 0
-2100 -3900 0
-1900 -3900 0
-1700 -3900 0
-1500 -3900 0
-1300 -3900 0
-1100 -3900 0
-900 -3900 0
-700 -3900 0
-500 -3900 0
-300 -3900 0
-100 -3900 0
100 -3900 0
300 -3900 0
500 -3900 0
700 -3900 0
900 -3900 0
1100 -3900 0
1300 -3900 0
1500 -3900 0
1700 -3900 0
1900 -3900 0
2100 -3900 0
2300 -3900 0
2500 -3900 0
2700 -3900 0
2900 -3900 0
3100 -3900 0
3300 -3900 0
3500 -3900 0
3700 -3900 0
3900 -3900 0
4100 -3900 0
4300 -3900 0
4500 -3900 0
4700 -3900 0
4900 -3900 0
5100 -3900 0
5300 -3900 0
5500 -3900 0
5700 -3900 0
5900 -3900 0
6100 -3900 0
6300 -3900 0
6500 -3900 0
6700 -3900 0
6900 -3900 0
7100 -3900 0
7300 -3900 0
7500 -3900 0
-7500 -3700 0
-7300 -3700 0
-7100 -3700 0
-6900 -3700 0
-6700 -3700 0
-6500 -3700 0
-6300 -3700 0
-6100 -3700 0
-5900 -3700 0
-5700 -3700 0
-5500 -3700 0
-5300 -3700 0
-5100 -3700 0
-4900 -3700 0
-4700 -3700 0
-4500 -3700 0
-4300 -3700 0
-4100 -3700 0
-3900 -3700 0
-3700 -3700 0
-3500 -3700 0
-3300 -3700 0
-3100 -3700 0
-2900 -3700 0
-2700 -3700 0
-2500 -3700 0
-2300 -3700 0
-2100 -3700 0
-1900 -3700 0
-1700 -3700 0
-1500 -3700 0
-1300 -3700 0
-1100 -3700 0
-900 -3700 0
-700 -3700 0
-500 -3700 0
-300 -3700 0
-100 -3700 0
100 -3700 0
300 -3700 0
500 -3700 0
700 -3700 0
900 -3700 0
1100 -3700 0
1300 -3700 0
1500 -3700 0
1700 -3700 0
1900 -3700 0
2100 -3700 0
2300 -3700 0
2500 -3700 0
2700 -3700 0
2900 -3700 0
3100 -3700 0
3300 -3700 0
3500 -3700 0
3700 -3700 0
3900 -3700 0
4100 -3700 0
4300 -3700 0
4500 -3700 0
4700 -3700 0
4900 -3700 0
5100 -3700 0
5300 -3700 0
5500 -3700 0
5700 -3700 0
5900 -3700 0
6100 -3700 0
6300 -3700 0
6500 -3700 0
6700 -3700 0
6900 -3700 0
7100 -3700 0
7300 -3700 0
7500 -3700 0
-7500 -3500 0
-7300 -3500 0
-7100 -3500 0
-6900 -3500 0
-6700 -3500 0
-6500 -3500 0
-6300 -3500 0
-6100 -3500 0
-5900 -3500 0
-5700 -3500 0
-5500 -3500 0
-5300 -3500 0
-5100 -3500 0
-4900 -3500 0
-4700 -3500 0
-4500 -3500 0
-4300 -3500 0
-4100 -3500 0
-3900 -3500 0
-3700 -3500 0
-3500 -3500 0
-3300 -3500 0
-3100 -3500 0
-2900 -3500 0
-2700 -3500 0
-2500 -3500 0
-2300 -3500 0
-2100 -3500 0
-1900 -3500 0
-1700 -3500 0
-1500 -3500 0
-1300 -3500 0
-1100 -3500 0
-900 -3500 0
-700 -3500 0
-500 -3500 0
-300 -3500 0
-100 -3500 0
100 -3500 0
300 -3500 0
500 -3500 0
700 -3500 0
900 -3500 0
1100 -3500 0
1300 -3500 0
1500 -3500 0
1700 -3500 0
1900 -3500 0
2100 -3500 0
2300 -3500 0
2500 -3500 0
2700 -3500 0
2900 -3500 0
3100 -3500 0
3300 -3500 0
3500 -3500 0
3700 -3500 0
3900 -3500 0
4100 -3500 0
4300 -3500 0
4500 -3500 0
4700 -3500 0
4900 -3500 0
5100 -3500 0
5300 -3500 0
5500 -3500 0
5700 -3500 0
5900 -3500 0
6100 -3500 0
6300 -3500 0
6500 -3500 0
6700 -3500 0
6900 -3500 0
7100 -3500 0
7300 -3500 0
7500 -3500 0
-7500 -3300 0
-7300 -3300 0
-7100 -3300 0
-6900 -3300 0
-6700 -3300 0
-6500 -3300 0
-6300 -3300 0
-6100 -3300 0
-5900 -3300 0
-5700 -3300 0
-5500 -3300 0
-5300 -3300 0
-5100 -3300 0
-4900 -3300 0
-4700 -3300 0
-4500 -3300 0
-4300 -3300 0
-4100 -3300 0
-3900 -3300 0
-3700 -3300 0
-3500 -3300 0
-3300 -3300 0
-3100 -3300 0
-2900 -3300 0
-2700 -3300 0
-2500 -3300 0
-2300 -3300 0
-2100 -3300 0
-1900 -3300 0
-1700 -3300 0
-1500 -3300 0
-1300 -3300 0
-1100 -3300 0
-900 -3300 0
-700 -3300 0
-500 -3300 0
-300 -3300 0
-100 -3300 0
100 -3300 0
300 -3300 0
500 -3300 0
700 -3300 0
900 -3300 0
1100 -3300 0
1300 -3300 0
1500 -3300 0
1700 -3300 0
1900 -3300 0
2100 -3300 0
2300 -3300 0
2500 -3300 0
2700 -3300 0
2900 -3300 0
3100 -3300 0
3300 -3300 0
3500 -3300 0
3700 -3300 0
3900 -3300 0
4100 -3300 0
4300 -3300 0
4500 -3300 0
4700 -3300 0
4900 -3300 0
5100 -3300 0
5300 -3300 0
5500 -3300 0
5700 -3300 0
5900 -3300 0
6100 -3300 0
6300 -3300 0
6500 -3300 0
6700 -3300 0
6900 -3300 0
7100 -3300 0
7300 -3300 0
7500 -3300 0
-7500 -3100 0
-7300 -3100 0
-7100 -3100 0
-6900 -3100 0
-6700 -3100 0
-6500 -3100 0
-6300 -3100 0
-6100 -3100 0
-5900 -3100 0
-5700 -3100 0
-5500 -3100 0
-5300 -3100 0
-5100 -3100 0
-4900 -3100 0
-4700 -3100 0
-4500 -3100 0
-4300 -3100 0
-4100 -3100 0
-3900 -3100 0
-3700 -3100 0
-3500 -3100 0
-3300 -3100 0
-3100 -3100 0
-2900 -3100 0
-2700 -3100 0
-2500 -3100 0
-2300 -3100 0
-2100 -3100 0
-1900 -3100 0
-1700 -3100 0
-1500 -3100 0
-1300 -3100 0
-1100 -3100 0
-900 -3100 0
-700 -3100 0
-500 -3100 0
-300 -3100 0
-100 -3100 0
100 -3100 0
300 -3100 0
500 -3100 0
700 -3100 0
900 -3100 0
1100 -3100 0
1300 -3100 0
1500 -3100 0
1700 -3100 0
1900 -3100 0
2100 -3100 0
2300 -3100 0
2500 -3100 0
2700 -3100 0
2900 -3100 0
3100 -3100 0
3300 -3100 0
3500 -3100 0
3700 -3100 0
3900 -3100 0
4100 -3100 0
4300 -3100 0
4500 -3100 0
4700 -3100 0
4900 -3100 0
5100 -3100 0
5300 -3100 0
5500 -3100 0
5700 -3100 0
5900 -3100 0
6100 -3100 0
6300 -3100 0
6500 -3100 0
6700 -3100 0
6900 -3100 0
7100 -3100 0
7300 -3100 0
7500 -3100 0
-7500 -2900 0
-7300 -2900 0
-7100 -2900 0
-6900 -2900 0
-6700 -2900 0
-6500 -2900 0
-6300 -2900 0
-6100 -2900 0
-5900 -2900 0
-5700 -2900 0
-5500 -2900 0
-5300 -2900 0
-5100 -2900 0
-4900 -2900 0
-4700 -2900 0
-4500 -2900 0
-4300 -2900 0
-4100 -2900 0
-3900 -2900 0
-3700 -2900 0
-3500 -2900 0
-3300 -2900 0
-3100 -2900 0
-2900 -2900 0
-2700 -2900 0
-2500 -2900 0
-2300 -2900 0
-2100 -2900 0
-1900 -2900 0
-1700 -2900 0
-1500 -2900 0
-1300 -2900 0
-1100 -2900 0
-900 -2900 0
-700 -2900 0
-500 -2900 0
-300 -2900 0
-100 -2900 0
100 -2900 0
300 -2900 0
500 -2900 0
700 -2900 0
900 -2900 0
1100 -2900 0
1300 -2900 0
1500 -2900 0
1700 -2900 0
1900 -2900 0
2100 -2900 0
2300 -2900 0
2500 -2900 0
2700 -2900 0
2900 -2900 0
3100 -2900 0
3300 -2900 0
3500 -2900 0
3700 -2900 0
3900 -2900 0
4100 -2900 0
4300 -2900 0
4500 -2900 0
4700 -2900 0
4900 -2900 0
5100 -2900 0
5300 -2900 0
5500 -2900 0
5700 -2900 0
5900 -2900 0
6100 -2900 0
6300 -2900 0
6500 -2900 0
6700 -2900 0
6900 -2900 0
7100 -2900 0
7300 -2900 0
7500 -2900 0
-7500 -2700 0
-7300 -2700 0
-7100 -2700 0
-6900 -2700 0
-6700 -2700 0
-6500 -2700 0
-6300 -2700 0
-6100 -2700 0
-5900 -2700 0
-5700 -2700 0
-5500 -2700 0
-5300 -2700 0
-5100 -2700 0
-4900 -2700 0
-4700 -2700 0
-4500 -2700 0
-4300 -2700 0
-4100 -2700 0
-3900 -2700 0
-3700 -2700 0
-3500 -2700 0
-3300 -2700 0
-3100 -2700 0
-2900 -2700 0
-2700 -2700 0
-2500 -2700 0
-2300 -2700 0
-2100 -2700 0
-1900 -2700 0
-1700 -2700 0
-1500 -2700 0
-1300 -2700 0
-1100 -2700 0
-900 -2700 0
-700 -2700 0
-500 -2700 0
-300 -2700 0
-100 -2700 0
100 -2700 0
300 -2700 0
500 -2700 0
700 -2700 0
900 -2700 0
1100 -2700 0
1300 -2700 0
1500 -2700 0
1700 -2700 0
1900 -2700 0
2100 -2700 0
2300 -2700 0
2500 -2700 0
2700 -2700 0
2900 -2700 0
3100 -2700 0
3300 -2700 0
3500 -2700 0
3700 -2700 0
3900 -2700 0
4100 -2700 0
4300 -2700 0
4500 -2700 0
4700 -2700 0
4900 -2700 0
5100 -2700 0
5300 -2700 0
5500 -2700 0
5700 -2700 0
5900 -2700 0
6100 -2700 0
6300 -2700 0
6500 -2700 0
6700 -2700 0
6900 -2700 0
7100 -2700 0
7300 -2700 0
7500 -2700 0
-7500 -2500 0
-7300 -2500 0
-7100 -2500 0
-6900 -2500 0
-6700 -2500 0
-6500 -2500 0
-6300 -2500 0
-6100 -2500 0
-5900 -2500 0
-5700 -2500 0
-5500 -2500 0
-5300 -2500 0
-5100 -2500 0
-4900 -2500 0
-4700 -2500 0
-4500 -2500 0
-4300 -2500 0
-4100 -2500 0
-3900 -2500 0
-3700 -2500 0
-3500 -2500 0
-3300 -2500 0
-3100 -2500 0
-2900 -2500 0
-2700 -2500 0
-2500 -2500 0
-2300 -2500 0
-2100 -2500 0
-1900 -2500 0
-1700 -2500 0
-1500 -2500 0
-1300 -2500 0
-1100 -2500 0
-900 -2500 0
-700 -2500 0
-500 -2500 0
-300 -2500 0
-100 -2500 0
100 -2500 0
300 -2500 0
500 -2500 0
700 -2500 0
900 -2500 0
1100 -2500 0
1300 -2500 0
1500 -2500 0
1700 -2500 0
1900 -2500 0
2100 -2500 0
2300 -2500 0
2500 -2500 0
2700 -2500 0
2900 -2500 0
3100 -2500 0
3300 -2500 0
3500 -2500 0
3700 -2500 0
3900 -2500 0
4100 -2500 0
4300 -2500 0
4500 -2500 0
4700 -2500 0
4900 -2500 0
5100 -2500 0
5300 -2500 0
5500 -2500 0
5700 -2500 0
5900 -2500 0
6100 -2500 0
6300 -2500 0
6500 -2500 0
6700 -2500 0
6900 -2500 0
7100 -2500 0
7300 -2500 0
7500 -2500 0
-7500 -2300 0
-7300 -2300 0
-7100 -2300 0
-6900 -2300 0
-6700 -2300 0
-6500 -2300 0
-6300 -2300 0
-6100 -2300 0
-5900 -2300 0
-5700 -2300 0
-5500 -2300 0
-5300 -2300 0
-5100 -2300 0
-4900 -2300 0
-4700 -2300 0
-4500 -2300 0
-4300 -2300 0
-4100 -2300 0
-3900 -2300 0
-3700 -2300 0
-3500 -2300 0
-3300 -2300 0
-3100 -2300 0
-2900 -2300 0
-2700 -2300 0
-2500 -2300 0
-2300 -2300 0
-2100 -2300 0
-1900 -2300 0
-1700 -2300 0
-1500 -2300 0
-1300 -2300 0
-1100 -2300 0
-900 -2300 0
-700 -2300 0
-500 -2300 0
-300 -2300 0
-100 -2300 0
100 -2300 0
300 -2300 0
500 -2300 0
700 -2300 0
900 -2300 0
1100 -2300 0
1300 -2300 0
1500 -2300 0
1700 -2300 0
1900 -2300 0
2100 -2300 0
2300 -2300 0
2500 -2300 0
2700 -2300 0
2900 -2300 0
3100 -2300 0
3300 -2300 0
3500 -2300 0
3700 -2300 0
3900 -2300 0
4100 -2300 0
4300 -2300 0
4500 -2300 0
4700 -2300 0
4900 -2300 0
5100 -2300 0
5300 -2300 0
5500 -2300 0
5700 -2300 0
5900 -2300 0
6100 -2300 0
6300 -2300 0
6500 -2300 0
6700 -2300 0
6900 -2300 0
7100 -2300 0
7300 -2300 0
7500 -2300 0
-7500 -2100 0
-7300 -2100 0
-7100 -2100 0
-6900 -2100 0
-6700 -2100 0
-6500 -2100 0
-6300 -2100 0
-6100 -2100 0
-5900 -2100 0
-5700 -2100 0
-5500 -2100 0
-5300 -2100 0
-5100 -2100 0
-4900 -2100 0
-4700 -2100 0
-4500 -2100 0
-4300 -2100 0
-4100 -2100 0
-3900 -2100 0
-3700 -2100 0
-3500 -2100 0
-3300 -2100 0
-3100 -2100 0
-2900 -2100 0
-2700 -2100 0
-2500 -2100 0
-2300 -2100 0
-2100 -2100 0
-1900 -2100 0
-1700 -2100 0
-1500 -2100 0
-1300 -2100 0
-1100 -2100 0
-900 -2100 0
-700 -2100 0
-500 -2100 0
-300 -2100 0
-100 -2100 0
100 -2100 0
300 -2100 0
500 -2100 0
700 -2100 0
900 -2100 0
1100 -2100 0
1300 -2100 0
1500 -2100 0
1700 -2100 0
1900 -2100 0
2100 -2100 0
2300 -2100 0
2500 -2100 0
2700 -2100 0
2900 -2100 0
3100 -2100 0
3300 -2100 0
3500 -2100 0
3700 -2100 0
3900 -2100 0
4100 -2100 0
4300 -2100 0
4500 -2100 0
4700 -2100 0
4900 -2100 0
5100 -2100 0
5300 -2100 0
5500 -2100 0
5700 -2100 0
5900 -2100 0
6100 -2100 0
6300 -2100 0
6500 -2100 0
6700 -2100 0
6900 -2100 0
7100 -2100 0
7300 -2100 0
7500 -2100 0
-7500 -1900 0
-7300 -1900 0
-7100 -1900 0
-6900 -1900 0
-6700 -1900 0
-6500 -1900 0
-6300 -1900 0
-6100 -1900 0
-5900 -1900 0
-5700 -1900 0
-5500 -1900 0
-5300 -1900 0
-5100 -1900 0
-4900 -1900 0
-4700 -1900 0
-4500 -1900 0
-4300 -1900 0
-4100 -1900 0
-3900 -1900 0
-3700 -1900 0
-3500 -1900 0
-3300 -1900 0
-3100 -1900 0
-2900 -1900 0
-2700 -1900 0
-2500 -1900 0
-2300 -1900 0
-2100 -1900 0
-1900 -1900 0
-1700 -1900 0
-1500 -1900 0
-1300 -1900 0
-1100 -1900 0
-900 -1900 0
-700 -1900 0
-500 -1900 0
-300 -1900 0
-100 -1900 0
100 -1900 0
300 -1900 0
500 -1900 0
700 -1900 0
900 -1900 0
1100 -1900 0
1300 -1900 0
1500 -1900 0
1700 -1900 0
1900 -1900 0
2100 -1900 0
2300 -1900 0
2500 -1900 0
2700 -1900 0
2900 -1900 0
3100 -1900 0
3300 -1900 0
3500 -1900 0
3700 -1900 0
3900 -1900 0
4100 -1900 0
4300 -1900 0
4500 -1900 0
4700 -1900 0
4900 -1900 0
5100 -1900 0
5300 -1900 0
5500 -1900 0
5700 -1900 0
5900 -1900 0
6100 -1900 0
6300 -1900 0
6500 -1900 0
6700 -1900 0
6900 -1900 0
7100 -1900 0
7300 -1900 0
7500 -1900 0
-7500 -1700 0
-7300 -1700 0
-7100 -1700 0
-6900 -1700 0
-6700 -1700 0
-6500 -1700 0
-6300 -1700 0
-6100 -1700 0
-5900 -1700 0
-5700 -1700 0
-5500 -1700 0
-5300 -1700 0
-5100 -1700 0
-4900 -1700 0
-4700 -1700 0
-4500 -1700 0
-4300 -1700 0
-4100 -1700 0
-3900 -1700 0
-3700 -1700 0
-3500 -1700 0
-3300 -1700 0
-3100 -1700 0
-2900 -1700 0
-2700 -1700 0
-2500 -1700 0
-2300 -1700 0
-2100 -1700 0
-1900 -1700 0
-1700 -1700 0
-1500 -1700 0
-1300 -1700 0
-1100 -1700 0
-900 -1700 0
-700 -1700 0
-500 -1700 0
-300 -1700 0
-100 -1700 0
100 -1700 0
300 -1700 0
500 -1700 0
700 -1700 0
900 -1700 0
1100 -1700 0
1300 -1700 0
1500 -1700 0
1700 -1700 0
1900 -1700 0
2100 -1700 0
2300 -1700 0
2500 -1700 0
2700 -1700 0
2900 -1700 0
3100 -1700 0
3300 -1700 0
3500 -1700 0
3700 -1700 0
3900 -1700 0
4100 -1700 0
4300 -1700 0
4500 -1700 0
4700 -1700 0
4900 -1700 0
5100 -1700 0
5300 -1700 0
5500 -1700 0
5700 -1700 0
5900 -1700 0
6100 -1700 0
6300 -1700 0
6500 -1700 0
6700 -1700 0
6900 -1700 0
7100 -1700 0
7300 -1700 0
7500 -1700 0
-7500 -1500 0
-7300 -1500 0
-7100 -1500 0
-6900 -1500 0
-6700 -1500 0
-6500 -1500 0
-6300 -1500 0
-6100 -1500 0
-5900 -1500 0
-5700 -1500 0
-5500 -1500 0
-5300 -1500 0
-5100 -1500 0
-4900 -1500 0
-4700 -1500 0
-4500 -1500 0
-4300 -1500 0
-4100 -1500 0
-3900 -1500 0
-3700 -1500 0
-3500 -1500 0
-3300 -1500 0
-3100 -1500 0
-2900 -1500 0
-2700 -1500 0
-2500 -1500 0
-2300 -1500 0
-2100 -1500 0
-1900 -1500 0
-1700 -1500 0
-1500 -1500 0
-1300 -1500 0
-1100 -1500 0
-900 -1500 0
-700 -1500 0
-500 -1500 0
-300 -1500 0
-100 -1500 0
100 -1500 0
300 -1500 0
500 -1500 0
700 -1500 0
900 -1500 0
1100 -1500 0
1300 -1500 0
1500 -1500 0
1700 -1500 0
1900 -1500 0
2100 -1500 0
2300 -1500 0
2500 -1500 0
2700 -1500 0
2900 -1500 0
3100 -1500 0
3300 -1500 0
3500 -1500 0
3700 -1500 0
3900 -1500 0
4100 -1500 0
4300 -1500 0
4500 -1500 0
4700 -1500 0
4900 -1500 0
5100 -1500 0
5300 -1500 0
5500 -1500 0
5700 -1500 0
5900 -1500 0
6100 -1500 0
6300 -1500 0
6500 -1500 0
6700 -1500 0
6900 -1500 0
7100 -1500 0
7300 -1500 0
7500 -1500 0
-7500 -1300 0
-7300 -1300 0
-7100 -1300 0
-6900 -1300 0
-6700 -1300 0
-6500 -1300 0
-6300 -1300 0
-6100 -1300 0
-5900 -1300 0
-5700 -1300 0
-5500 -1300 0
-5300 -1300 0
-5100 -1300 0
-4900 -1300 0
-4700 -1300 0
-4500 -1300 0
-4300 -1300 0
-4100 -1300 0
-3900 -1300 0
-3700 -1300 0
-3500 -1300 0
-3300 -1300 0
-3100 -1300 0
-2900 -1300 0
-2700 -1300 0
-2500 -1300 0
-2300 -1300 0
-2100 -1300 0
-1900 -1300 0
-1700 -1300 0
-1500 -1300 0
-1300 -1300 0
-1100 -1300 0
-900 -1300 0
-700 -1300 0
-500 -1300 0
-300 -1300 0
-100 -1300 0
100 -1300 0
300 -1300 0
500 -1300 0
700 -1300 0
900 -1300 0
1100 -1300 0
1300 -1300 0
1500 -1300 0
1700 -1300 0
1900 -1300 0
2100 -1300 0
2300 -1300 0
2500 -1300 0
2700 -1300 0
2900 -1300 0
3100 -1300 0
3300 -1300 0
3500 -1300 0
3700 -1300 0
3900 -1300 0
4100 -1300 0
4300 -1300 0
4500 -1300 0
4700 -1300 0
4900 -1300 0
5100 -1300 0
5300 -1300 0
5500 -1300 0
5700 -1300 0
5900 -1300 0
6100 -1300 0
6300 -1300 0
6500 -1300 0
6700 -1300 0
6900 -1300 0
7100 -1300 0
7300 -1300 0
7500 -1300 0
-7500 -1100 0
-7300 -1100 0
-7100 -1100 0
-6900 -1100 0
-6700 -1100 0
-6500 -1100 0
-6300 -1100 0
-6100 -1100 0
-5900 -1100 0
-5700 -1100 0
-5500 -1100 0
-5300 -1100 0
-5100 -1100 0
-4900 -1100 0
-4700 -1100 0
-4500 -1100 0
-4300 -1100 0
-4100 -1100 0
-3900 -1100 0
-3700 -1100 0
-3500 -1100 0
-3300 -1100 0
-3100 -1100 0
-2900 -1100 0
-2700 -1100 0
-2500 -1100 0
-2300 -1100 0
-2100 -1100 0
-1900 -1100 0
-1700 -1100 0
-1500 -1100 0
-1300 -1100 0
-1100 -1100 0
-900 -1100 0
-700 -1100 0
-500 -1100 0
-300 -1100 0
-100 -1100 0
100 -1100 0
300 -1100 0
500 -1100 0
700 -1100 0
900 -1100 0
1100 -1100 0
1300 -1100 0
1500 -1100 0
1700 -1100 0
1900 -1100 0
2100 -1100 0
2300 -1100 0
2500 -1100 0
2700 -1100 0
2900 -1100 0
3100 -1100 0
3300 -1100 0
3500 -1100 0
3700 -1100 0
3900 -1100 0
4100 -1100 0
4300 -1100 0
4500 -1100 0
4700 -1100 0
4900 -1100 0
5100 -1100 0
5300 -1100 0
5500 -1100 0
5700 -1100 0
5900 -1100 0
6100 -1100 0
6300 -1100 0
6500 -1100 0
6700 -1100 0
6900 -1100 0
7100 -1100 0
7300 -1100 0
7500 -1100 0
-7500 -900 0
-7300 -900 0
-7100 -900 0
-6900 -900 0
-6700 -900 0
-6500 -900 0
-6300 -900 0
-6100 -900 0
-5900 -900 0
-5700 -900 0
-5500 -900 0
-5300 -900 0
-5100 -900 0
-4900 -900 0
-4700 -900 0
-4500 -900 0
-4300 -900 0
-4100 -900 0
-3900 -900 0
-3700 -900 0
-3500 -900 0
-3300 -900 0
-3100 -900 0
-2900 -900 0
-2700 -900 0
-2500 -900 0
-2300 -900 0
-2100 -900 0
-1900 -900 0
-1700 -900 0
-1500 -900 0
-1300 -900 0
-1100 -900 0
-900 -900 0
-700 -900 0
-500 -900 0
-300 -900 0
-100 -900 0
100 -900 0
300 -900 0
500 -900 0
700 -900 0
900 -900 0
1100 -900 0
1300 -900 0
1500 -900 0
1700 -900 0
1900 -900 0
2100 -900 0
2300 -900 0
2500 -900 0
2700 -900 0
2900 -900 0
3100 -900 0
3300 -900 0
3500 -900 0
3700 -900 0
3900 -900 0
4100 -900 0
4300 -900 0
4500 -900 0
4700 -900 0
4900 -900 0
5100 -900 0
5300 -900 0
5500 -900 0
5700 -900 0
5900 -900 0
6100 -900 0
6300 -900 0
6500 -900 0
6700 -900 0
6900 -900 0
7100 -900 0
7300 -900 0
7500 -900 0
-7500 -700 0
-7300 -700 0
-7100 -700 0
-6900 -700 0
-6700 -700 0
-6500 -700 0
-6300 -700 0
-6100 -700 0
-5900 -700 0
-5700 -700 0
-5500 -700 0
-5300 -700 0
-5100 -700 0
-4900 -700 0
-4700 -700 0
-4500 -700 0
-4300 -700 0
-4100 -700 0
-3900 -700 0
-3700 -700 0
-3500 -700 0
-3300 -700 0
-3100 -700 0
-2900 -700 0
-2700 -700 0
-2500 -700 0
-2300 -700 0
-2100 -700 0
-1900 -700 0
-1700 -700 0
-1500 -700 0
-1300 -700 0
-1100 -700 0
-900 -700 0
-700 -700 0
-500 -700 0
-300 -700 0
-100 -700 0
100 -700 0
300 -700 0
500 -700 0
700 -700 0
900 -700 0
1100 -700 0
1300 -700 0
1500 -700 0
1700 -700 0
1900 -700 0
2100 -700 0
2300 -700 0
2500 -700 0
2700 -700 0
2900 -700 0
3100 -700 0
3300 -700 0
3500 -700 0
3700 -700 0
3900 -700 0
4100 -700 0
4300 -700 0
4500 -700 0
4700 -700 0
4900 -700 0
5100 -700 0
5300 -700 0
5500 -700 0
5700 -700 0
5900 -700 0
6100 -700 0
6300 -700 0
6500 -700 0
6700 -700 0
6900 -700 0
7100 -700 0
7300 -700 0
7500 -700 0
-7500 -500 0
-7300 -500 0
-7100 -500 0
-6900 -500 0
-6700 -500 0
-6500 -500 0
-6300 -500 0
-6100 -500 0
-5900 -500 0
-5700 -500 0
-5500 -500 0
-5300 -500 0
-5100 -500 0
-4900 -500 0
-4700 -500 0
-4500 -500 0
-4300 -500 0
-4100 -500 0
-3900 -500 0
-3700 -500 0
-3500 -500 0
-3300 -500 0
-3100 -500 0
-2900 -500 0
-2700 -500 0
-2500 -500 0
-2300 -500 0
-2100 -500 0
-1900 -500 0
-1700 -500 0
-1500 -500 0
-1300 -500 0
-1100 -500 0
-900 -500 0
-700 -500 0
-500 -500 0
-300 -500 0
-100 -500 0
100 -500 0
300 -500 0
500 -500 0
700 -500 0
900 -500 0
1100 -500 0
1300 -500 0
1500 -500 0
1700 -500 0
1900 -500 0
2100 -500 0
2300 -500 0
2500 -500 0
2700 -500 0
2900 -500 0
3100 -500 0
3300 -500 0
3500 -500 0
3700 -500 0
3900 -500 0
4100 -500 0
4300 -500 0
4500 -500 0
4700 -500 0
4900 -500 0
5100 -500 0
5300 -500 0
5500 -500 0
5700 -500 0
5900 -500 0
6100 -500 0
6300 -500 0
6500 -500 0
6700 -500 0
6900 -500 0
7100 -500 0
7300 -500 0
7500 -500 0
-7500 -300 0
-7300 -300 0
-7100 -300 0
-6900 -300 0
-6700 -300 0
-6500 -300 0
-6300 -300 0
-6100 -300 0
-5900 -300 0
-5700 -300 0
-5500 -300 0
-5300 -300 0
-5100 -300 0
-4900 -300 0
-4700 -300 0
-4500 -300 0
-4300 -300 0
-4100 -300 0
-3900 -300 0
-3700 -300 0
-3500 -300 0
-3300 -300 0
-3100 -300 0
-2900 -300 0
-2700 -300 0
-2500 -300 0
-2300 -300 0
-2100 -300 0
-1900 -300 0
-1700 -300 0
-1500 -300 0
-1300 -300 0
-1100 -300 0
-900 -300 0
-700 -300 0
-500 -300 0
-300 -300 0
-100 -300 0
100 -300 0
300 -300 0
500 -300 0
700 -300 0
900 -300 0
1100 -300 0
1300 -300 0
1500 -300 0
1700 -300 0
1900 -300 0
2100 -300 0
2300 -300 0
2500 -300 0
2700 -300 0
2900 -300 0
3100 -300 0
3300 -300 0
3500 -300 0
3700 -300 0
3900 -300 0
4100 -300 0
4300 -300 0
4500 -300 0
4700 -300 0
4900 -300 0
5100 -300 0
5300 -300 0
5500 -300 0
5700 -300 0
5900 -300 0
6100 -300 0
6300 -300 0
6500 -300 0
6700 -300 0
6900 -300 0
7100 -300 0
7300 -300 0
7500 -300 0
-7500 -100 0
-7300 -100 0
-7100 -100 0
-6900 -100 0
-6700 -100 0
-6500 -100 0
-6300 -100 0
-6100 -100 0
-5900 -100 0
-5700 -100 0
-5500 -100 0
-5300 -100 0
-5100 -100 0
-4900 -100 0
-4700 -100 0
-4500 -100 0
-4300 -100 0
-4100 -100 0
-3900 -100 0
-3700 -100 0
-3500 -100 0
-3300 -100 0
-3100 -100 0
-2900 -100 0
-2700 -100 0
-2500 -100 0
-2300 -100 0
-2100 -100 0
-1900 -100 0
-1700 -100 0
-1500 -100 0
-1300 -100 0
-1100 -100 0
-900 -100 0
-700 -100 0
-500 -100 0
-300 -100 0
-100 -100 0
100 -100 0
300 -100 0
500 -100 0
700 -100 0
900 -100 0
1100 -100 0
1300 -100 0
1500 -100 0
1700 -100 0
1900 -100 0
2100 -100 0
2300 -100 0
2500 -100 0
2700 -100 0
2900 -100 0
3100 -100 0
3300 -100 0
3500 -100 0
3700 -100 0
3900 -100 0
4100 -100 0
4300 -100 0
4500 -100 0
4700 -100 0
4900 -100 0
5100 -100 0
5300 -100 0
5500 -100 0
5700 -100 0
5900 -100 0
6100 -100 0
6300 -100 0
6500 -100 0
6700 -100 0
6900 -100 0
7100 -100 0
7300 -100 0
7500 -100 0
-7500 100 0
-7300 100 0
-7100 100 0
-6900 100 0
-6700 100 0
-6500 100 0
-6300 100 0
-6100 100 0
-5900 100 0
-5700 100 0
-5500 100 0
-5300 100 0
-5100 100 0
-4900 100 0
-4700 100 0
-4500 100 0
-4300 100 0
-4100 100 0
-3900 100 0
-3700 100 0
-3500 100 0
-3300 100 0
-3100 100 0
-2900 100 0
-2700 100 0
-2500 100 0
-2300 100 0
-2100 100 0
-1900 100 0
-1700 100 0
-1500 100 0
-1300 100 0
-1100 100 0
-900 100 0
-700 100 0
-500 100 0
-300 100 0
-100 100 0
100 100 0
300 100 0
500 100 0
700 100 0
900 100 0
1100 100 0
1300 100 0
1500 100 0
1700 100 0
1900 100 0
2100 100 0
2300 100 0
2500 100 0
2700 100 0
2900 100 0
3100 100 0
3300 100 0
3500 100 0
3700 100 0
3900 100 0
4100 100 0
4300 100 0
4500 100 0
4700 100 0
4900 100 0
5100 100 0
5300 100 0
5500 100 0
5700 100 0
5900 100 0
6100 100 0
6300 100 0
6500 100 0
6700 100 0
6900 100 0
7100 100 0
7300 100 0
7500 100 0
-7500 300 0
-7300 300 0
-7100 300 0
-6900 300 0
-6700 300 0
-6500 300 0
-6300 300 0
-6100 300 0
-5900 300 0
-5700 300 0
-5500 300 0
-5300 300 0
-5100 300 0
-4900 300 0
-4700 300 0
-4500 300 0
-4300 300 0
-4100 300 0
-3900 300 0
-3700 300 0
-3500 300 0
-3300 300 0
-3100 300 0
-2900 300 0
-2700 300 0
-2500 300 0
-2300 300 0
-2100 300 0
-1900 300 0
-1700 300 0
-1500 300 0
-1300 300 0
-1100 300 0
-900 300 0
-700 300 0
-500 300 0
-300 300 0
-100 300 0
100 300 0
300 300 0
500 300 0
700 300 0
900 300 0
1100 300 0
1300 300 0
1500 300 0
1700 300 0
1900 300 0
2100 300 0
2300 300 0
2500 300 0
2700 300 0
2900 300 0
3100 300 0
3300 300 0
3500 300 0
3700 300 0
3900 300 0
4100 300 0
4300 300 0
4500 300 0
4700 300 0
4900 300 0
5100 300 0
5300 300 0
5500 300 0
5700 300 0
5900 300 0
6100 300 0
6300 300 0
6500 300 0
6700 300 0
6900 300 0
7100 300 0
7300 300 0
7500 300 0
-7500 500 0
-7300 500 0
-7100 500 0
-6900 500 0
-6700 500 0
-6500 500 0
-6300 500 0
-6100 500 0
-5900 500 0
-5700 500 0
-5500 500 0
-5300 500 0
-5100 500 0
-4900 500 0
-4700 500 0
-4500 500 0
-4300 500 0
-4100 500 0
-3900 500 0
-3700 500 0
-3500 500 0
-3300 500 0
-3100 500 0
-2900 500 0
-2700 500 0
-2500 500 0
-2300 500 0
-2100 500 0
-1900 500 0
-1700 500 0
-1500 500 0
-1300 500 0
-1100 500 0
-900 500 0
-700 500 0
-500 500 0
-300 500 0
-100 500 0
100 500 0
300 500 0
500 500 0
700 500 0
900 500 0
1100 500 0
1300 500 0
1500 500 0
1700 500 0
1900 500 0
2100 500 0
2300 500 0
2500 500 0
2700 500 0
2900 500 0
3100 500 0
3300 500 0
3500 500 0
3700 500 0
3900 500 0
4100 500 0
4300 500 0
4500 500 0
4700 500 0
4900 500 0
5100 500 0
5300 500 0
5500 500 0
5700 500 0
5900 500 0
6100 500 0
6300 500 0
6500 500 0
6700 500 0
6900 500 0
7100 500 0
7300 500 0
7500 500 0
-7500 700 0
-7300 700 0
-7100 700 0
-6900 700 0
-6700 700 0
-6500 700 0
-6300 700 0
-6100 700 0
-5900 700 0
-5700 700 0
-5500 700 0
-5300 700 0
-5100 700 0
-4900 700 0
-4700 700 0
-4500 700 0
-4300 700 0
-4100 700 0
-3900 700 0
-3700 700 0
-3500 700 0
-3300 700 0
-3100 700 0
-2900 700 0
-2700 700 0
-2500 700 0
-2300 700 0
-2100 700 0
-1900 700 0
-1700 700 0
-1500 700 0
-1300 700 0
-1100 700 0
-900 700 0
-700 700 0
-500 700 0
-300 700 0
-100 700 0
100 700 0
300 700 0
500 700 0
700 700 0
900 700 0
1100 700 0
1300 700 0
1500 700 0
1700 700 0
1900 700 0
2100 700 0
2300 700 0
2500 700 0
2700 700 0
2900 700 0
3100 700 0
3300 700 0
3500 700 0
3700 700 0
3900 700 0
4100 700 0
4300 700 0
4500 700 0
4700 700 0
4900 700 0
5100 700 0
5300 700 0
5500 700 0
5700 700 0
5900 700 0
6100 700 0
6300 700 0
6500 700 0
6700 700 0
6900 700 0
7100 700 0
7300 700 0
7500 700 0
-7500 900 0
-7300 900 0
-7100 900 0
-6900 900 0
-6700 900 0
-6500 900 0
-6300 900 0
-6100 900 0
-5900 900 0
-5700 900 0
-5500 900 0
-5300 900 0
-5100 900 0
-4900 900 0
-4700 900 0
-4500 900 0
-4300 900 0
-4100 900 0
-3900 900 0
-3700 900 0
-3500 900 0
-3300 900 0
-3100 900 0
-2900 900 0
-2700 900 0
-2500 900 0
-2300 900 0
-2100 900 0
-1900 900 0
-1700 900 0
-1500 900 0
-1300 900 0
-1100 900 0
-900 900 0
-700 900 0
-500 900 0
-300 900 0
-100 900 0
100 900 0
300 900 0
500 900 0
700 900 0
900 900 0
1100 900 0
1300 900 0
1500 900 0
1700 900 0
1900 900 0
2100 900 0
2300 900 0
2500 900 0
2700 900 0
2900 900 0
3100 900 0
3300 900 0
3500 900 0
3700 900 0
3900 900 0
4100 900 0
4300 900 0
4500 900 0
4700 900 0
4900 900 0
5100 900 0
5300 900 0
5500 900 0
5700 900 0
5900 900 0
6100 900 0
6300 900 0
6500 900 0
6700 900 0
6900 900 0
7100 900 0
7300 900 0
7500 900 0
-7500 1100 0
-7300 1100 0
-7100 1100 0
-6900 1100 0
-6700 1100 0
-6500 1100 0
-6300 1100 0
-6100 1100 0
-5900 1100 0
-5700 1100 0
-5500 1100 0
-5300 1100 0
-5100 1100 0
-4900 1100 0
-4700 1100 0
-4500 1100 0
-4300 1100 0
-4100 1100 0
-3900 1100 0
-3700 1100 0
-3500 1100 0
-3300 1100 0
-3100 1100 0
-2900 1100 0
-2700 1100 0
-2500 1100 0
-2300 1100 0
-2100 1100 0
-1900 1100 0
-1700 1100 0
-1500 1100 0
-1300 1100 0
-1100 1100 0
-900 1100 0
-700 1100 0
-500 1100 0
-300 1100 0
-100 1100 0
100 1100 0
300 1100 0
500 1100 0
700 1100 0
900 1100 0
1100 1100 0
1300 1100 0
1500 1100 0
1700 1100 0
1900 1100 0
2100 1100 0
2300 1100 0
2500 1100 0
2700 1100 0
2900 1100 0
3100 1100 0
3300 1100 0
3500 1100 0
3700 1100 0
3900 1100 0
4100 1100 0
4300 1100 0
4500 1100 0
4700 1100 0
4900 1100 0
5100 1100 0
5300 1100 0
5500 1100 0
5700 1100 0
5900 1100 0
6100 1100 0
6300 1100 0
6500 1100 0
6700 1100 0
6900 1100 0
7100 1100 0
7300 1100 0
7500 1100 0
-7500 1300 0
-7300 1300 0
-7100 1300 0
-6900 1300 0
-6700 1300 0
-6500 1300 0
-6300 1300 0
-6100 1300 0
-5900 1300 0
-5700 1300 0
-5500 1300 0
-5300 1300 0
-5100 1300 0
-4900 1300 0
-4700 1300 0
-4500 1300 0
-4300 1300 0
-4100 1300 0
-3900 1300 0
-3700 1300 0
-3500 1300 0
-3300 1300 0
-3100 1300 0
-2900 1300 0
-2700 1300 0
-2500 1300 0
-2300 1300 0
-2100 1300 0
-1900 1300 0
-1700 1300 0
-1500 1300 0
-1300 1300 0
-1100 1300 0
-900 1300 0
-700 1300 0
-500 1300 0
-300 1300 0
-100 1300 0
100 1300 0
300 1300 0
500 1300 0
700 1300 0
900 1300 0
1100 1300 0
1300 1300 0
1500 1300 0
1700 1300 0
1900 1300 0
2100 1300 0
2300 1300 0
2500 1300 0
2700 1300 0
2900 1300 0
3100 1300 0
3300 1300 0
3500 1300 0
3700 1300 0
3900 1300 0
4100 1300 0
4300 1300 0
4500 1300 0
4700 1300 0
4900 1300 0
5100 1300 0
5300 1300 0
5500 1300 0
5700 1300 0
5900 1300 0
6100 1300 0
6300 1300 0
6500 1300 0
6700 1300 0
6900 1300 0
7100 1300 0
7300 1300 0
7500 1300 0
-7500 1500 0
-7300 1500 0
-7100 1500 0
-6900 1500 0
-6700 1500 0
-6500 1500 0
-6300 1500 0
-6100 1500 0
-5900 1500 0
-5700 1500 0
-5500 1500 0
-5300 1500 0
-5100 1500 0
-4900 1500 0
-4700 1500 0
-4500 1500 0
-4300 1500 0
-4100 1500 0
-3900 1500 0
-3700 1500 0
-3500 1500 0
-3300 1500 0
-3100 1500 0
-2900 1500 0
-2700 1500 0
-2500 1500 0
-2300 1500 0
-2100 1500 0
-1900 1500 0
-1700 1500 0
-1500 1500 0
-1300 1500 0
-1100 1500 0
-900 1500 0
-700 1500 0
-500 1500 0
-300 1500 0
-100 1500 0
100 1500 0
300 1500 0
500 1500 0
700 1500 0
900 1500 0
1100 1500 0
1300 1500 0
1500 1500 0
1700 1500 0
1900 1500 0
2100 1500 0
2300 1500 0
2500 1500 0
2700 1500 0
2900 1500 0
3100 1500 0
3300 1500 0
3500 1500 0
3700 1500 0
3900 1500 0
4100 1500 0
4300 1500 0
4500 1500 0
4700 1500 0
4900 1500 0
5100 1500 0
5300 1500 0
5500 1500 0
5700 1500 0
5900 1500 0
6100 1500 0
6300 1500 0
6500 1500 0
6700 1500 0
6900 1500 0
7100 1500 0
7300 1500 0
7500 1500 0
-7500 1700 0
-7300 1700 0
-7100 1700 0
-6900 1700 0
-6700 1700 0
-6500 1700 0
-6300 1700 0
-6100 1700 0
-5900 1700 0
-5700 1700 0
-5500 1700 0
-5300 1700 0
-5100 1700 0
-4900 1700 0
-4700 1700 0
-4500 1700 0
-4300 1700 0
-4100 1700 0
-3900 1700 0
-3700 1700 0
-3500 1700 0
-3300 1700 0
-3100 1700 0
-2900 1700 0
-2700 1700 0
-2500 1700 0
-2300 1700 0
-2100 1700 0
-1900 1700 0
-1700 1700 0
-1500 1700 0
-1300 1700 0
-1100 1700 0
-900 1700 0
-700 1700 0
-500 1700 0
-300 1700 0
-100 1700 0
100 1700 0
300 1700 0
500 1700 0
700 1700 0
900 1700 0
1100 1700 0
1300 1700 0
1500 1700 0
1700 1700 0
1900 1700 0
2100 1700 0
2300 1700 0
2500 1700 0
2700 1700 0
2900 1700 0
3100 1700 0
3300 1700 0
3500 1700 0
3700 1700 0
3900 1700 0
4100 1700 0
4300 1700 0
4500 1700 0
4700 1700 0
4900 1700 0
5100 1700 0
5300 1700 0
5500 1700 0
5700 1700 0
5900 1700 0
6100 1700 0
6300 1700 0
6500 1700 0
6700 1700 0
6900 1700 0
7100 1700 0
7300 1700 0
7500 1700 0
-7500 1900 0
-7300 1900 0
-7100 1900 0
-6900 1900 0
-6700 1900 0
-6500 1900 0
-6300 1900 0
-6100 1900 0
-5900 1900 0
-5700 1900 0
-5500 1900 0
-5300 1900 0
-5100 1900 0
-4900 1900 0
-4700 1900 0
-4500 1900 0
-4300 1900 0
-4100 1900 0
-3900 1900 0
-3700 1900 0
-3500 1900 0
-3300 1900 0
-3100 1900 0
-2900 1900 0
-2700 1900 0
-2500 1900 0
-2300 1900 0
-2100 1900 0
-1900 1900 0
-1700 1900 0
-1500 1900 0
-1300 1900 0
-1100 1900 0
-900 1900 0
-700 1900 0
-500 1900 0
-300 1900 0
-100 1900 0
100 1900 0
300 1900 0
500 1900 0
700 1900 0
900 1900 0
1100 1900 0
1300 1900 0
1500 1900 0
1700 1900 0
1900 1900 0
2100 1900 0
2300 1900 0
2500 1900 0
2700 1900 0
2900 1900 0
3100 1900 0
3300 1900 0
3500 1900 0
3700 1900 0
3900 1900 0
4100 1900 0
4300 1900 0
4500 1900 0
4700 1900 0
4900 1900 0
5100 1900 0
5300 1900 0
5500 1900 0
5700 1900 0
5900 1900 0
6100 1900 0
6300 1900 0
6500 1900 0
6700 1900 0
6900 1900 0
7100 1900 0
7300 1900 0
7500 1900 0
-7500 2100 0
-7300 2100 0
-7100 2100 0
-6900 2100 0
-6700 2100 0
-6500 2100 0
-6300 2100 0
-6100 2100 0
-5900 2100 0
-5700 2100 0
-5500 2100 0
-5300 2100 0
-5100 2100 0
-4900 2100 0
-4700 2100 0
-4500 2100 0
-4300 2100 0
-4100 2100 0
-3900 2100 0
-3700 2100 0
-3500 2100 0
-3300 2100 0
-3100 2100 0
-2900 2100 0
-2700 2100 0
-2500 2100 0
-2300 2100 0
-2100 2100 0
-1900 2100 0
-1700 2100 0
-1500 2100 0
-1300 2100 0
-1100 2100 0
-900 2100 0
-700 2100 0
-500 2100 0
-300 2100 0
-100 2100 0
100 2100 0
300 2100 0
500 2100 0
700 2100 0
900 2100 0
1100 2100 0
1300 2100 0
1500 2100 0
1700 2100 0
1900 2100 0
2100 2100 0
2300 2100 0
2500 2100 0
2700 2100 0
2900 2100 0
3100 2100 0
3300 2100 0
3500 2100 0
3700 2100 0
3900 2100 0
4100 2100 0
4300 2100 0
4500 2100 0
4700 2100 0
4900 2100 0
5100 2100 0
5300 2100 0
5500 2100 0
5700 2100 0
5900 2100 0
6100 2100 0
6300 2100 0
6500 2100 0
6700 2100 0
6900 2100 0
7100 2100 0
7300 2100 0
7500 2100 0
-7500 2300 0
-7300 2300 0
-7100 2300 0
-6900 2300 0
-6700 2300 0
-6500 2300 0
-6300 2300 0
-6100 2300 0
-5900 2300 0
-5700 2300 0
-5500 2300 0
-5300 2300 0
-5100 2300 0
-4900 2300 0
-4700 2300 0
-4500 2300 0
-4300 2300 0
-4100 2300 0
-3900 2300 0
-3700 2300 0
-3500 2300 0
-3300 2300 0
-3100 2300 0
-2900 2300 0
-2700 2300 0
-2500 2300 0
-2300 2300 0
-2100 2300 0
-1900 2300 0
-1700 2300 0
-1500 2300 0
-1300 2300 0
-1100 2300 0
-900 2300 0
-700 2300 0
-500 2300 0
-300 2300 0
-100 2300 0
100 2300 0
300 2300 0
500 2300 0
700 2300 0
900 2300 0
1100 2300 0
1300 2300 0
1500 2300 0
1700 2300 0
1900 2300 0
2100 2300 0
2300 2300 0
2500 2300 0
2700 2300 0
2900 2300 0
3100 2300 0
3300 2300 0
3500 2300 0
3700 2300 0
3900 2300 0
4100 2300 0
4300 2300 0
4500 2300 0
4700 2300 0
4900 2300 0
5100 2300 0
5300 2300 0
5500 2300 0
5700 2300 0
5900 2300 0
6100 2300 0
6300 2300 0
6500 2300 0
6700 2300 0
6900 2300 0
7100 2300 0
7300 2300 0
7500 2300 0
-7500 2500 0
-7300 2500 0
-7100 2500 0
-6900 2500 0
-6700 2500 0
-6500 2500 0
-6300 2500 0
-6100 2500 0
-5900 2500 0
-5700 2500 0
-5500 2500 0
-5300 2500 0
-5100 2500 0
-4900 2500 0
-4700 2500 0
-4500 2500 0
-4300 2500 0
-4100 2500 0
-3900 2500 0
-3700 2500 0
-3500 2500 0
-3300 2500 0
-3100 2500 0
-2900 2500 0
-2700 2500 0
-2500 2500 0
-2300 2500 0
-2100 2500 0
-1900 2500 0
-1700 2500 0
-1500 2500 0
-1300 2500 0
-1100 2500 0
-900 2500 0
-700 2500 0
-500 2500 0
-300 2500 0
-100 2500 0
100 2500 0
300 2500 0
500 2500 0
700 2500 0
900 2500 0
1100 2500 0
1300 2500 0
1500 2500 0
1700 2500 0
1900 2500 0
2100 2500 0
2300 2500 0
2500 2500 0
2700 2500 0
2900 2500 0
3100 2500 0
3300 2500 0
3500 2500 0
3700 2500 0
3900 2500 0
4100 2500 0
4300 2500 0
4500 2500 0
4700 2500 0
4900 2500 0
5100 2500 0
5300 2500 0
5500 2500 0
5700 2500 0
5900 2500 0
6100 2500 0
6300 2500 0
6500 2500 0
6700 2500 0
6900 2500 0
7100 2500 0
7300 2500 0
7500 2500 0
-7500 2700 0
-7300 2700 0
-7100 2700 0
-6900 2700 0
-6700 2700 0
-6500 2700 0
-6300 2700 0
-6100 2700 0
-5900 2700 0
-5700 2700 0
-5500 2700 0
-5300 2700 0
-5100 2700 0
-4900 2700 0
-4700 2700 0
-4500 2700 0
-4300 2700 0
-4100 2700 0
-3900 2700 0
-3700 2700 0
-3500 2700 0
-3300 2700 0
-3100 2700 0
-2900 2700 0
-2700 2700 0
-2500 2700 0
-2300 2700 0
-2100 2700 0
-1900 2700 0
-1700 2700 0
-1500 2700 0
-1300 2700 0
-1100 2700 0
-900 2700 0
-700 2700 0
-500 2700 0
-300 2700 0
-100 2700 0
100 2700 0
300 2700 0
500 2700 0
700 2700 0
900 2700 0
1100 2700 0
1300 2700 0
1500 2700 0
1700 2700 0
1900 2700 0
2100 2700 0
2300 2700 0
2500 2700 0
2700 2700 0
2900 2700 0
3100 2700 0
3300 2700 0
3500 2700 0
3700 2700 0
3900 2700 0
4100 2700 0
4300 2700 0
4500 2700 0
4700 2700 0
4900 2700 0
5100 2700 0
5300 2700 0
5500 2700 0
5700 2700 0
5900 2700 0
6100 2700 0
6300 2700 0
6500 2700 0
6700 2700 0
6900 2700 0
7100 2700 0
7300 2700 0
7500 2700 0
-7500 2900 0
-7300 2900 0
-7100 2900 0
-6900 2900 0
-6700 2900 0
-6500 2900 0
-6300 2900 0
-6100 2900 0
-5900 2900 0
-5700 2900 0
-5500 2900 0
-5300 2900 0
-5100 2900 0
-4900 2900 0
-4700 2900 0
-4500 2900 0
-4300 2900 0
-4100 2900 0
-3900 2900 0
-3700 2900 0
-3500 2900 0
-3300 2900 0
-3100 2900 0
-2900 2900 0
-2700 2900 0
-2500 2900 0
-2300 2900 0
-2100 2900 0
-1900 2900 0
-1700 2900 0
-1500 2900 0
-1300 2900 0
-1100 2900 0
-900 2900 0
-700 2900 0
-500 2900 0
-300 2900 0
-100 2900 0
100 2900 0
300 2900 0
500 2900 0
700 2900 0
900 2900 0
1100 2900 0
1300 2900 0
1500 2900 0
1700 2900 0
1900 2900 0
2100 2900 0
2300 2900 0
2500 2900 0
2700 2900 0
2900 2900 0
3100 2900 0
3300 2900 0
3500 2900 0
3700 2900 0
3900 2900 0
4100 2900 0
4300 2900 0
4500 2900 0
4700 2900 0
4900 2900 0
5100 2900 0
5300 2900 0
5500 2900 0
5700 2900 0
5900 2900 0
6100 2900 0
6300 2900 0
6500 2900 0
6700 2900 0
6900 2900 0
7100 2900 0
7300 2900 0
7500 2900 0
-7500 3100 0
-7300 3100 0
-7100 3100 0
-6900 3100 0
-6700 3100 0
-6500 3100 0
-6300 3100 0
-6100 3100 0
-5900 3100 0
-5700 3100 0
-5500 3100 0
-5300 3100 0
-5100 3100 0
-4900 3100 0
-4700 3100 0
-4500 3100 0
-4300 3100 0
-4100 3100 0
-3900 3100 0
-3700 3100 0
-3500 3100 0
-3300 3100 0
-3100 3100 0
-2900 3100 0
-2700 3100 0
-2500 3100 0
-2300 3100 0
-2100 3100 0
-1900 3100 0
-1700 3100 0
-1500 3100 0
-1300 3100 0
-1100 3100 0
-900 3100 0
-700 3100 0
-500 3100 0
-300 3100 0
-100 3100 0
100 3100 0
300 3100 0
500 3100 0
700 3100 0
900 3100 0
1100 3100 0
1300 3100 0
1500 3100 0
1700 3100 0
1900 3100 0
2100 3100 0
2300 3100 0
2500 3100 0
2700 3100 0
2900 3100 0
3100 3100 0
3300 3100 0
3500 3100 0
3700 3100 0
3900 3100 0
4100 3100 0
4300 3100 0
4500 3100 0
4700 3100 0
4900 3100 0
5100 3100 0
5300 3100 0
5500 3100 0
5700 3100 0
5900 3100 0
6100 3100 0
6300 3100 0
6500 3100 0
6700 3100 0
6900 3100 0
7100 3100 0
7300 3100 0
7500 3100 0
-7500 3300 0
-7300 3300 0
-7100 3300 0
-6900 3300 0
-6700 3300 0
-6500 3300 0
-6300 3300 0
-6100 3300 0
-5900 3300 0
-5700 3300 0
-5500 3300 0
-5300 3300 0
-5100 3300 0
-4900 3300 0
-4700 3300 0
-4500 3300 0
-4300 3300 0
-4100 3300 0
-3900 3300 0
-3700 3300 0
-3500 3300 0
-3300 3300 0
-3100 3300 0
-2900 3300 0
-2700 3300 0
-2500 3300 0
-2300 3300 0
-2100 3300 0
-1900 3300 0
-1700 3300 0
-1500 3300 0
-1300 3300 0
-1100 3300 0
-900 3300 0
-700 3300 0
-500 3300 0
-300 3300 0
-100 3300 0
100 3300 0
300 3300 0
500 3300 0
700 3300 0
900 3300 0
1100 3300 0
1300 3300 0
1500 3300 0
1700 3300 0
1900 3300 0
2100 3300 0
2300 3300 0
2500 3300 0
2700 3300 0
2900 3300 0
3100 3300 0
3300 3300 0
3500 3300 0
3700 3300 0
3900 3300 0
4100 3300 0
4300 3300 0
4500 3300 0
4700 3300 0
4900 3300 0
5100 3300 0
5300 3300 0
5500 3300 0
5700 3300 0
5900 3300 0
6100 3300 0
6300 3300 0
6500 3300 0
6700 3300 0
6900 3300 0
7100 3300 0
7300 3300 0
7500 3300 0
-7500 3500 0
-7300 3500 0
-7100 3500 0
-6900 3500 0
-6700 3500 0
-6500 3500 0
-6300 3500 0
-6100 3500 0
-5900 3500 0
-5700 3500 0
-5500 3500 0
-5300 3500 0
-5100 3500 0
-4900 3500 0
-4700 3500 0
-4500 3500 0
-4300 3500 0
-4100 3500 0
-3900 3500 0
-3700 3500 0
-3500 3500 0
-3300 3500 0
-3100 3500 0
-2900 3500 0
-2700 3500 0
-2500 3500 0
-2300 3500 0
-2100 3500 0
-1900 3500 0
-1700 3500 0
-1500 3500 0
-1300 3500 0
-1100 3500 0
-900 3500 0
-700 3500 0
-500 3500 0
-300 3500 0
-100 3500 0
100 3500 0
300 3500 0
500 3500 0
700 3500 0
900 3500 0
1100 3500 0
1300 3500 0
1500 3500 0
1700 3500 0
1900 3500 0
2100 3500 0
2300 3500 0
2500 3500 0
2700 3500 0
2900 3500 0
3100 3500 0
3300 3500 0
3500 3500 0
3700 3500 0
3900 3500 0
4100 3500 0
4300 3500 0
4500 3500 0
4700 3500 0
4900 3500 0
5100 3500 0
5300 3500 0
5500 3500 0
5700 3500 0
5900 3500 0
6100 3500 0
6300 3500 0
6500 3500 0
6700 3500 0
6900 3500 0
7100 3500 0
7300 3500 0
7500 3500 0
-7500 3700 0
-7300 3700 0
-7100 3700 0
-6900 3700 0
-6700 3700 0
-6500 3700 0
-6300 3700 0
-6100 3700 0
-5900 3700 0
-5700 3700 0
-5500 3700 0
-5300 3700 0
-5100 3700 0
-4900 3700 0
-4700 3700 0
-4500 3700 0
-4300 3700 0
-4100 3700 0
-3900 3700 0
-3700 3700 0
-3500 3700 0
-3300 3700 0
-3100 3700 0
-2900 3700 0
-2700 3700 0
-2500 3700 0
-2300 3700 0
-2100 3700 0
-1900 3700 0
-1700 3700 0
-1500 3700 0
-1300 3700 0
-1100 3700 0
-900 3700 0
-700 3700 0
-500 3700 0
-300 3700 0
-100 3700 0
100 3700 0
300 3700 0
500 3700 0
700 3700 0
900 3700 0
1100 3700 0
1300 3700 0
1500 3700 0
1700 3700 0
1900 3700 0
2100 3700 0
2300 3700 0
2500 3700 0
2700 3700 0
2900 3700 0
3100 3700 0
3300 3700 0
3500 3700 0
3700 3700 0
3900 3700 0
4100 3700 0
4300 3700 0
4500 3700 0
4700 3700 0
4900 3700 0
5100 3700 0
5300 3700 0
5500 3700 0
5700 3700 0
5900 3700 0
6100 3700 0
6300 3700 0
6500 3700 0
6700 3700 0
6900 3700 0
7100 3700 0
7300 3700 0
7500 3700 0
-7500 3900 0
-7300 3900 0
-7100 3900 0
-6900 3900 0
-6700 3900 0
-6500 3900 0
-6300 3900 0
-6100 3900 0
-5900 3900 0
-5700 3900 0
-5500 3900 0
-5300 3900 0
-5100 3900 0
-4900 3900 0
-4700 3900 0
-4500 3900 0
-4300 3900 0
-4100 3900 0
-3900 3900 0
-3700 3900 0
-3500 3900 0
-3300 3900 0
-3100 3900 0
-2900 3900 0
-2700 3900 0
-2500 3900 0
-2300 3900 0
-2100 3900 0
-1900 3900 0
-1700 3900 0
-1500 3900 0
-1300 3900 0
-1100 3900 0
-900 3900 0
-700 3900 0
-500 3900 0
-300 3900 0
-100 3900 0
100 3900 0
300 3900 0
500 3900 0
700 3900 0
900 3900 0
1100 3900 0
1300 3900 0
1500 3900 0
1700 3900 0
1900 3900 0
2100 3900 0
2300 3900 0
2500 3900 0
2700 3900 0
2900 3900 0
3100 3900 0
3300 3900 0
3500 3900 0
3700 3900 0
3900 3900 0
4100 3900 0
4300 3900 0
4500 3900 0
4700 3900 0
4900 3900 0
5100 3900 0
5300 3900 0
5500 3900 0
5700 3900 0
5900 3900 0
6100 3900 0
6300 3900 0
6500 3900 0
6700 3900 0
6900 3900 0
7100 3900 0
7300 3900 0
7500 3900 0
-7500 4100 0
-7300 4100 0
-7100 4100 0
-6900 4100 0
-6700 4100 0
-6500 4100 0
-6300 4100 0
-6100 4100 0
-5900 4100 0
-5700 4100 0
-5500 4100 0
-5300 4100 0
-5100 4100 0
-4900 4100 0
-4700 4100 0
-4500 4100 0
-4300 4100 0
-4100 4100 0
-3900 4100 0
-3700 4100 0
-3500 4100 0
-3300 4100 0
-3100 4100 0
-2900 4100 0
-2700 4100 0
-2500 4100 0
-2300 4100 0
-2100 4100 0
-1900 4100 0
-1700 4100 0
-1500 4100 0
-1300 4100 0
-1100 4100 0
-900 4100 0
-700 4100 0
-500 4100 0
-300 4100 0
-100 4100 0
100 4100 0
300 4100 0
500 4100 0
700 4100 0
900 4100 0
1100 4100 0
1300 4100 0
1500 4100 0
1700 4100 0
1900 4100 0
2100 4100 0
2300 4100 0
2500 4100 0
2700 4100 0
2900 4100 0
3100 4100 0
3300 4100 0
3500 4100 0
3700 4100 0
3900 4100 0
4100 4100 0
4300 4100 0
4500 4100 0
4700 4100 0
4900 4100 0
5100 4100 0
5300 4100 0
5500 4100 0
5700 4100 0
5900 4100 0
6100 4100 0
6300 4100 0
6500 4100 0
6700 4100 0
6900 4100 0
7100 4100 0
7300 4100 0
7500 4100 0
-7500 4300 0
-7300 4300 0
-7100 4300 0
-6900 4300 0
-6700 4300 0
-6500 4300 0
-6300 4300 0
-6100 4300 0
-5900 4300 0
-5700 4300 0
-5500 4300 0
-5300 4300 0
-5100 4300 0
-4900 4300 0
-4700 4300 0
-4500 4300 0
-4300 4300 0
-4100 4300 0
-3900 4300 0
-3700 4300 0
-3500 4300 0
-3300 4300 0
-3100 4300 0
-2900 4300 0
-2700 4300 0
-2500 4300 0
-2300 4300 0
-2100 4300 0
-1900 4300 0
-1700 4300 0
-1500 4300 0
-1300 4300 0
-1100 4300 0
-900 4300 0
-700 4300 0
-500 4300 0
-300 4300 0
-100 4300 0
100 4300 0
300 4300 0
500 4300 0
700 4300 0
900 4300 0
1100 4300 0
1300 4300 0
1500 4300 0
1700 4300 0
1900 4300 0
2100 4300 0
2300 4300 0
2500 4300 0
2700 4300 0
2900 4300 0
3100 4300 0
3300 4300 0
3500 4300 0
3700 4300 0
3900 4300 0
4100 4300 0
4300 4300 0
4500 4300 0
4700 4300 0
4900 4300 0
5100 4300 0
5300 4300 0
5500 4300 0
5700 4300 0
5900 4300 0
6100 4300 0
6300 4300 0
6500 4300 0
6700 4300 0
6900 4300 0
7100 4300 0
7300 4300 0
7500 4300 0
-7500 4500 0
-7300 4500 0
-7100 4500 0
-6900 4500 0
-6700 4500 0
-6500 4500 0
-6300 4500 0
-6100 4500 0
-5900 4500 0
-5700 4500 0
-5500 4500 0
-5300 4500 0
-5100 4500 0
-4900 4500 0
-4700 4500 0
-4500 4500 0
-4300 4500 0
-4100 4500 0
-3900 4500 0
-3700 4500 0
-3500 4500 0
-3300 4500 0
-3100 4500 0
-2900 4500 0
-2700 4500 0
-2500 4500 0
-2300 4500 0
-2100 4500 0
-1900 4500 0
-1700 4500 0
-1500 4500 0
-1300 4500 0
-1100 4500 0
-900 4500 0
-700 4500 0
-500 4500 0
-300 4500 0
-100 4500 0
100 4500 0
300 4500 0
500 4500 0
700 4500 0
900 4500 0
1100 4500 0
1300 4500 0
1500 4500 0
1700 4500 0
1900 4500 0
2100 4500 0
2300 4500 0
2500 4500 0
2700 4500 0
2900 4500 0
3100 4500 0
3300 4500 0
3500 4500 0
3700 4500 0
3900 4500 0
4100 4500 0
4300 4500 0
4500 4500 0
4700 4500 0
4900 4500 0
5100 4500 0
5300 4500 0
5500 4500 0
5700 4500 0
5900 4500 0
6100 4500 0
6300 4500 0
6500 4500 0
6700 4500 0
6900 4500 0
7100 4500 0
7300 4500 0
7500 4500 0
-7500 4700 0
-7300 4700 0
-7100 4700 0
-6900 4700 0
-6700 4700 0
-6500 4700 0
-6300 4700 0
-6100 4700 0
-5900 4700 0
-5700 4700 0
-5500 4700 0
-5300 4700 0
-5100 4700 0
-4900 4700 0
-4700 4700 0
-4500 4700 0
-4300 4700 0
-4100 4700 0
-3900 4700 0
-3700 4700 0
-3500 4700 0
-3300 4700 0
-3100 4700 0
-2900 4700 0
-2700 4700 0
-2500 4700 0
-2300 4700 0
-2100 4700 0
-1900 4700 0
-1700 4700 0
-1500 4700 0
-1300 4700 0
-1100 4700 0
-900 4700 0
-700 4700 0
-500 4700 0
-300 4700 0
-100 4700 0
100 4700 0
300 4700 0
500 4700 0
700 4700 0
900 4700 0
1100 4700 0
1300 4700 0
1500 4700 0
1700 4700 0
1900 4700 0
2100 4700 0
2300 4700 0
2500 4700 0
2700 4700 0
2900 4700 0
3100 4700 0
3300 4700 0
3500 4700 0
3700 4700 0
3900 4700 0
4100 4700 0
4300 4700 0
4500 4700 0
4700 4700 0
4900 4700 0
5100 4700 0
5300 4700 0
5500 4700 0
5700 4700 0
5900 4700 0
6100 4700 0
6300 4700 0
6500 4700 0
6700 4700 0
6900 4700 0
7100 4700 0
7300 4700 0
7500 4700 0
-7500 4900 0
-7300 4900 0
-7100 4900 0
-6900 4900 0
-6700 4900 0
-6500 4900 0
-6300 4900 0
-6100 4900 0
-5900 4900 0
-5700 4900 0
-5500 4900 0
-5300 4900 0
-5100 4900 0
-4900 4900 0
-4700 4900 0
-4500 4900 0
-4300 4900 0
-4100 4900 0
-3900 4900 0
-3700 4900 0
-3500 4900 0
-3300 4900 0
-3100 4900 0
-2900 4900 0
-2700 4900 0
-2500 4900 0
-2300 4900 0
-2100 4900 0
-1900 4900 0
-1700 4900 0
-1500 4900 0
-1300 4900 0
-1100 4900 0
-900 4900 0
-700 4900 0
-500 4900 0
-300 4900 0
-100 4900 0
100 4900 0
300 4900 0
500 4900 0
700 4900 0
900 4900 0
1100 4900 0
1300 4900 0
1500 4900 0
1700 4900 0
1900 4900 0
2100 4900 0
2300 4900 0
2500 4900 0
2700 4900 0
2900 4900 0
3100 4900 0
3300 4900 0
3500 4900 0
3700 4900 0
3900 4900 0
4100 4900 0
4300 4900 0
4500 4900 0
4700 4900 0
4900 4900 0
5100 4900 0
5300 4900 0
5500 4900 0
5700 4900 0
5900 4900 0
6100 4900 0
6300 4900 0
6500 4900 0
6700 4900 0
6900 4900 0
7100 4900 0
7300 4900 0
7500 4900 0
-7500 5100 0
-7300 5100 0
-7100 5100 0
-6900 5100 0
-6700 5100 0
-6500 5100 0
-6300 5100 0
-6100 5100 0
-5900 5100 0
-5700 5100 0
-5500 5100 0
-5300 5100 0
-5100 5100 0
-4900 5100 0
-4700 5100 0
-4500 5100 0
-4300 5100 0
-4100 5100 0
-3900 5100 0
-3700 5100 0
-3500 5100 0
-3300 5100 0
-3100 5100 0
-2900 5100 0
-2700 5100 0
-2500 5100 0
-2300 5100 0
-2100 5100 0
-1900 5100 0
-1700 5100 0
-1500 5100 0
-1300 5100 0
-1100 5100 0
-900 5100 0
-700 5100 0
-500 5100 0
-300 5100 0
-100 5100 0
100 5100 0
300 5100 0
500 5100 0
700 5100 0
900 5100 0
1100 5100 0
1300 5100 0
1500 5100 0
1700 5100 0
1900 5100 0
2100 5100 0
2300 5100 0
2500 5100 0
2700 5100 0
2900 5100 0
3100 5100 0
3300 5100 0
3500 5100 0
3700 5100 0
3900 5100 0
4100 5100 0
4300 5100 0
4500 5100 0
4700 5100 0
4900 5100 0
5100 5100 0
5300 5100 0
5500 5100 0
5700 5100 0
5900 5100 0
6100 5100 0
6300 5100 0
6500 5100 0
6700 5100 0
6900 5100 0
7100 5100 0
7300 5100 0
7500 5100 0
-7500 5300 0
-7300 5300 0
-7100 5300 0
-6900 5300 0
-6700 5300 0
-6500 5300 0
-6300 5300 0
-6100 5300 0
-5900 5300 0
-5700 5300 0
-5500 5300 0
-5300 5300 0
-5100 5300 0
-4900 5300 0
-4700 5300 0
-4500 5300 0
-4300 5300 0
-4100 5300 0
-3900 5300 0
-3700 5300 0
-3500 5300 0
-3300 5300 0
-3100 5300 0
-2900 5300 0
-2700 5300 0
-2500 5300 0
-2300 5300 0
-2100 5300 0
-1900 5300 0
-1700 5300 0
-1500 5300 0
-1300 5300 0
-1100 5300 0
-900 5300 0
-700 5300 0
-500 5300 0
-300 5300 0
-100 5300 0
100 5300 0
300 5300 0
500 5300 0
700 5300 0
900 5300 0
1100 5300 0
1300 5300 0
1500 5300 0
1700 5300 0
1900 5300 0
2100 5300 0
2300 5300 0
2500 5300 0
2700 5300 0
2900 5300 0
3100 5300 0
3300 5300 0
3500 5300 0
3700 5300 0
3900 5300 0
4100 5300 0
4300 5300 0
4500 5300 0
4700 5300 0
4900 5300 0
5100 5300 0
5300 5300 0
5500 5300 0
5700 5300 0
5900 5300 0
6100 5300 0
6300 5300 0
6500 5300 0
6700 5300 0
6900 5300 0
7100 5300 0
7300 5300 0
7500 5300 0
-7500 5500 0
-7300 5500 0
-7100 5500 0
-6900 5500 0
-6700 5500 0
-6500 5500 0
-6300 5500 0
-6100 5500 0
-5900 5500 0
-5700 5500 0
-5500 5500 0
-5300 5500 0
-5100 5500 0
-4900 5500 0
-4700 5500 0
-4500 5500 0
-4300 5500 0
-4100 5500 0
-3900 5500 0
-3700 5500 0
-3500 5500 0
-3300 5500 0
-3100 5500 0
-2900 5500 0
-2700 5500 0
-2500 5500 0
-2300 5500 0
-2100 5500 0
-1900 5500 0
-1700 5500 0
-1500 5500 0
-1300 5500 0
-1100 5500 0
-900 5500 0
-700 5500 0
-500 5500 0
-300 5500 0
-100 5500 0
100 5500 0
300 5500 0
500 5500 0
700 5500 0
900 5500 0
1100 5500 0
1300 5500 0
1500 5500 0
1700 5500 0
1900 5500 0
2100 5500 0
2300 5500 0
2500 5500 0
2700 5500 0
2900 5500 0
3100 5500 0
3300 5500 0
3500 5500 0
3700 5500 0
3900 5500 0
4100 5500 0
4300 5500 0
4500 5500 0
4700 5500 0
4900 5500 0
5100 5500 0
5300 5500 0
5500 5500 0
5700 5500 0
5900 5500 0
6100 5500 0
6300 5500 0
6500 5500 0
6700 5500 0
6900 5500 0
7100 5500 0
7300 5500 0
7500 5500 0
-7500 5700 0
-7300 5700 0
-7100 5700 0
-6900 5700 0
-6700 5700 0
-6500 5700 0
-6300 5700 0
-6100 5700 0
-5900 5700 0
-5700 5700 0
-5500 5700 0
-5300 5700 0
-5100 5700 0
-4900 5700 0
-4700 5700 0
-4500 5700 0
-4300 5700 0
-4100 5700 0
-3900 5700 0
-3700 5700 0
-3500 5700 0
-3300 5700 0
-3100 5700 0
-2900 5700 0
-2700 5700 0
-2500 5700 0
-2300 5700 0
-2100 5700 0
-1900 5700 0
-1700 5700 0
-1500 5700 0
-1300 5700 0
-1100 5700 0
-900 5700 0
-700 5700 0
-500 5700 0
-300 5700 0
-100 5700 0
100 5700 0
300 5700 0
500 5700 0
700 5700 0
900 5700 0
1100 5700 0
1300 5700 0
1500 5700 0
1700 5700 0
1900 5700 0
2100 5700 0
2300 5700 0
2500 5700 0
2700 5700 0
2900 5700 0
3100 5700 0
3300 5700 0
3500 5700 0
3700 5700 0
3900 5700 0
4100 5700 0
4300 5700 0
4500 5700 0
4700 5700 0
4900 5700 0
5100 5700 0
5300 5700 0
5500 5700 0
5700 5700 0
5900 5700 0
6100 5700 0
6300 5700 0
6500 5700 0
6700 5700 0
6900 5700 0
7100 5700 0
7300 5700 0
7500 5700 0
-7500 5900 0
-7300 5900 0
-7100 5900 0
-6900 5900 0
-6700 5900 0
-6500 5900 0
-6300 5900 0
-6100 5900 0
-5900 5900 0
-5700 5900 0
-5500 5900 0
-5300 5900 0
-5100 5900 0
-4900 5900 0
-4700 5900 0
-4500 5900 0
-4300 5900 0
-4100 5900 0
-3900 5900 0
-3700 5900 0
-3500 5900 0
-3300 5900 0
-3100 5900 0
-2900 5900 0
-2700 5900 0
-2500 5900 0
-2300 5900 0
-2100 5900 0
-1900 5900 0
-1700 5900 0
-1500 5900 0
-1300 5900 0
-1100 5900 0
-900 5900 0
-700 5900 0
-500 5900 0
-300 5900 0
-100 5900 0
100 5900 0
300 5900 0
500 5900 0
700 5900 0
900 5900 0
1100 5900 0
1300 5900 0
1500 5900 0
1700 5900 0
1900 5900 0
2100 5900 0
2300 5900 0
2500 5900 0
2700 5900 0
2900 5900 0
3100 5900 0
3300 5900 0
3500 5900 0
3700 5900 0
3900 5900 0
4100 5900 0
4300 5900 0
4500 5900 0
4700 5900 0
4900 5900 0
5100 5900 0
5300 5900 0
5500 5900 0
5700 5900 0
5900 5900 0
6100 5900 0
6300 5900 0
6500 5900 0
6700 5900 0
6900 5900 0
7100 5900 0
7300 5900 0
7500 5900 0
-7500 6100 0
-7300 6100 0
-7100 6100 0
-6900 6100 0
-6700 6100 0
-6500 6100 0
-6300 6100 0
-6100 6100 0
-5900 6100 0
-5700 6100 0
-5500 6100 0
-5300 6100 0
-5100 6100 0
-4900 6100 0
-4700 6100 0
-4500 6100 0
-4300 6100 0
-4100 6100 0
-3900 6100 0
-3700 6100 0
-3500 6100 0
-3300 6100 0
-3100 6100 0
-2900 6100 0
-2700 6100 0
-2500 6100 0
-2300 6100 0
-2100 6100 0
-1900 6100 0
-1700 6100 0
-1500 6100 0
-1300 6100 0
-1100 6100 0
-900 6100 0
-700 6100 0
-500 6100 0
-300 6100 0
-100 6100 0
100 6100 0
300 6100 0
500 6100 0
700 6100 0
900 6100 0
1100 6100 0
1300 6100 0
1500 6100 0
1700 6100 0
1900 6100 0
2100 6100 0
2300 6100 0
2500 6100 0
2700 6100 0
2900 6100 0
3100 6100 0
3300 6100 0
3500 6100 0
3700 6100 0
3900 6100 0
4100 6100 0
4300 6100 0
4500 6100 0
4700 6100 0
4900 6100 0
5100 6100 0
5300 6100 0
5500 6100 0
5700 6100 0
5900 6100 0
6100 6100 0
6300 6100 0
6500 6100 0
6700 6100 0
6900 6100 0
7100 6100 0
7300 6100 0
7500 6100 0
-7500 6300 0
-7300 6300 0
-7100 6300 0
-6900 6300 0
-6700 6300 0
-6500 6300 0
-6300 6300 0
-6100 6300 0
-5900 6300 0
-5700 6300 0
-5500 6300 0
-5300 6300 0
-5100 6300 0
-4900 6300 0
-4700 6300 0
-4500 6300 0
-4300 6300 0
-4100 6300 0
-3900 6300 0
-3700 6300 0
-3500 6300 0
-3300 6300 0
-3100 6300 0
-2900 6300 0
-2700 6300 0
-2500 6300 0
-2300 6300 0
-2100 6300 0
-1900 6300 0
-1700 6300 0
-1500 6300 0
-1300 6300 0
-1100 6300 0
-900 6300 0
-700 6300 0
-500 6300 0
-300 6300 0
-100 6300 0
100 6300 0
300 6300 0
500 6300 0
700 6300 0
900 6300 0
1100 6300 0
1300 6300 0
1500 6300 0
1700 6300 0
1900 6300 0
2100 6300 0
2300 6300 0
2500 6300 0
2700 6300 0
2900 6300 0
3100 6300 0
3300 6300 0
3500 6300 0
3700 6300 0
3900 6300 0
4100 6300 0
4300 6300 0
4500 6300 0
4700 6300 0
4900 6300 0
5100 6300 0
5300 6300 0
5500 6300 0
5700 6300 0
5900 6300 0
6100 6300 0
6300 6300 0
6500 6300 0
6700 6300 0
6900 6300 0
7100 6300 0
7300 6300 0
7500 6300 0
-7500 6500 0
-7300 6500 0
-7100 6500 0
-6900 6500 0
-6700 6500 0
-6500 6500 0
-6300 6500 0
-6100 6500 0
-5900 6500 0
-5700 6500 0
-5500 6500 0
-5300 6500 0
-5100 6500 0
-4900 6500 0
-4700 6500 0
-4500 6500 0
-4300 6500 0
-4100 6500 0
-3900 6500 0
-3700 6500 0
-3500 6500 0
-3300 6500 0
-3100 6500 0
-2900 6500 0
-2700 6500 0
-2500 6500 0
-2300 6500 0
-2100 6500 0
-1900 6500 0
-1700 6500 0
-1500 6500 0
-1300 6500 0
-1100 6500 0
-900 6500 0
-700 6500 0
-500 6500 0
-300 6500 0
-100 6500 0
100 6500 0
300 6500 0
500 6500 0
700 6500 0
900 6500 0
1100 6500 0
1300 6500 0
1500 6500 0
1700 6500 0
1900 6500 0
2100 6500 0
2300 6500 0
2500 6500 0
2700 6500 0
2900 6500 0
3100 6500 0
3300 6500 0
3500 6500 0
3700 6500 0
3900 6500 0
4100 6500 0
4300 6500 0
4500 6500 0
4700 6500 0
4900 6500 0
5100 6500 0
5300 6500 0
5500 6500 0
5700 6500 0
5900 6500 0
6100 6500 0
6300 6500 0
6500 6500 0
6700 6500 0
6900 6500 0
7100 6500 0
7300 6500 0
7500 6500 0
-7500 6700 0
-7300 6700 0
-7100 6700 0
-6900 6700 0
-6700 6700 0
-6500 6700 0
-6300 6700 0
-6100 6700 0
-5900 6700 0
-5700 6700 0
-5500 6700 0
-5300 6700 0
-5100 6700 0
-4900 6700 0
-4700 6700 0
-4500 6700 0
-4300 6700 0
-4100 6700 0
-3900 6700 0
-3700 6700 0
-3500 6700 0
-3300 6700 0
-3100 6700 0
-2900 6700 0
-2700 6700 0
-2500 6700 0
-2300 6700 0
-2100 6700 0
-1900 6700 0
-1700 6700 0
-1500 6700 0
-1300 6700 0
-1100 6700 0
-900 6700 0
-700 6700 0
-500 6700 0
-300 6700 0
-100 6700 0
100 6700 0
300 6700 0
500 6700 0
700 6700 0
900 6700 0
1100 6700 0
1300 6700 0
1500 6700 0
1700 6700 0
1900 6700 0
2100 6700 0
2300 6700 0
2500 6700 0
2700 6700 0
2900 6700 0
3100 6700 0
3300 6700 0
3500 6700 0
3700 6700 0
3900 6700 0
4100 6700 0
4300 6700 0
4500 6700 0
4700 6700 0
4900 6700 0
5100 6700 0
5300 6700 0
5500 6700 0
5700 6700 0
5900 6700 0
6100 6700 0
6300 6700 0
6500 6700 0
6700 6700 0
6900 6700 0
7100 6700 0
7300 6700 0
7500 6700 0
-7500 6900 0
-7300 6900 0
-7100 6900 0
-6900 6900 0
-6700 6900 0
-6500 6900 0
-6300 6900 0
-6100 6900 0
-5900 6900 0
-5700 6900 0
-5500 6900 0
-5300 6900 0
-5100 6900 0
-4900 6900 0
-4700 6900 0
-4500 6900 0
-4300 6900 0
-4100 6900 0
-3900 6900 0
-3700 6900 0
-3500 6900 0
-3300 6900 0
-3100 6900 0
-2900 6900 0
-2700 6900 0
-2500 6900 0
-2300 6900 0
-2100 6900 0
-1900 6900 0
-1700 6900 0
-1500 6900 0
-1300 6900 0
-1100 6900 0
-900 6900 0
-700 6900 0
-500 6900 0
-300 6900 0
-100 6900 0
100 6900 0
300 6900 0
500 6900 0
700 6900 0
900 6900 0
1100 6900 0
1300 6900 0
1500 6900 0
1700 6900 0
1900 6900 0
2100 6900 0
2300 6900 0
2500 6900 0
2700 6900 0
2900 6900 0
3100 6900 0
3300 6900 0
3500 6900 0
3700 6900 0
3900 6900 0
4100 6900 0
4300 6900 0
4500 6900 0
4700 6900 0
4900 6900 0
5100 6900 0
5300 6900 0
5500 6900 0
5700 6900 0
5900 6900 0
6100 6900 0
6300 6900 0
6500 6900 0
6700 6900 0
6900 6900 0
7100 6900 0
7300 6900 0
7500 6900 0
-7500 7100 0
-7300 7100 0
-7100 7100 0
-6900 7100 0
-6700 7100 0
-6500 7100 0
-6300 7100 0
-6100 7100 0
-5900 7100 0
-5700 7100 0
-5500 7100 0
-5300 7100 0
-5100 7100 0
-4900 7100 0
-4700 7100 0
-4500 7100 0
-4300 7100 0
-4100 7100 0
-3900 7100 0
-3700 7100 0
-3500 7100 0
-3300 7100 0
-3100 7100 0
-2900 7100 0
-2700 7100 0
-2500 7100 0
-2300 7100 0
-2100 7100 0
-1900 7100 0
-1700 7100 0
-1500 7100 0
-1300 7100 0
-1100 7100 0
-900 7100 0
-700 7100 0
-500 7100 0
-300 7100 0
-100 7100 0
100 7100 0
300 7100 0
500 7100 0
700 7100 0
900 7100 0
1100 7100 0
1300 7100 0
1500 7100 0
1700 7100 0
1900 7100 0
2100 7100 0
2300 7100 0
2500 7100 0
2700 7100 0
2900 7100 0
3100 7100 0
3300 7100 0
3500 7100 0
3700 7100 0
3900 7100 0
4100 7100 0
4300 7100 0
4500 7100 0
4700 7100 0
4900 7100 0
5100 7100 0
5300 7100 0
5500 7100 0
5700 7100 0
5900 7100 0
6100 7100 0
6300 7100 0
6500 7100 0
6700 7100 0
6900 7100 0
7100 7100 0
7300 7100 0
7500 7100 0
-7500 7300 0
-7300 7300 0
-7100 7300 0
-6900 7300 0
-6700 7300 0
-6500 7300 0
-6300 7300 0
-6100 7300 0
-5900 7300 0
-5700 7300 0
-5500 7300 0
-5300 7300 0
-5100 7300 0
-4900 7300 0
-4700 7300 0
-4500 7300 0
-4300 7300 0
-4100 7300 0
-3900 7300 0
-3700 7300 0
-3500 7300 0
-3300 7300 0
-3100 7300 0
-2900 7300 0
-2700 7300 0
-2500 7300 0
-2300 7300 0
-2100 7300 0
-1900 7300 0
-1700 7300 0
-1500 7300 0
-1300 7300 0
-1100 7300 0
-900 7300 0
-700 7300 0
-500 7300 0
-300 7300 0
-100 7300 0
100 7300 0
300 7300 0
500 7300 0
700 7300 0
900 7300 0
1100 7300 0
1300 7300 0
1500 7300 0
1700 7300 0
1900 7300 0
2100 7300 0
2300 7300 0
2500 7300 0
2700 7300 0
2900 7300 0
3100 7300 0
3300 7300 0
3500 7300 0
3700 7300 0
3900 7300 0
4100 7300 0
4300 7300 0
4500 7300 0
4700 7300 0
4900 7300 0
5100 7300 0
5300 7300 0
5500 7300 0
5700 7300 0
5900 7300 0
6100 7300 0
6300 7300 0
6500 7300 0
6700 7300 0
6900 7300 0
7100 7300 0
7300 7300 0
7500 7300 0
-7500 7500 0
-7300 7500 0
-7100 7500 0
-6900 7500 0
-6700 7500 0
-6500 7500 0
-6300 7500 0
-6100 7500 0
-5900 7500 0
-5700 7500 0
-5500 7500 0
-5300 7500 0
-5100 7500 0
-4900 7500 0
-4700 7500 0
-4500 7500 0
-4300 7500 0
-4100 7500 0
-3900 7500 0
-3700 7500 0
-3500 7500 0
-3300 7500 0
-3100 7500 0
-2900 7500 0
-2700 7500 0
-2500 7500 0
-2300 7500 0
-2100 7500 0
-1900 7500 0
-1700 7500 0
-1500 7500 0
-1300 7500 0
-1100 7500 0
-900 7500 0
-700 7500 0
-500 7500 0
-300 7500 0
-100 7500 0
100 7500 0
300 7500 0
500 7500 0
700 7500 0
900 7500 0
1100 7500 0
1300 7500 0
1500 7500 0
1700 7500 0
1900 7500 0
2100 7500 0
2300 7500 0
2500 7500 0
2700 7500 0
2900 7500 0
3100 7500 0
3300 7500 0
3500 7500 0
3700 7500 0
3900 7500 0
4100 7500 0
4300 7500 0
4500 7500 0
4700 7500 0
4900 7500 0
5100 7500 0
5300 7500 0
5500 7500 0
5700 7500 0
5900 7500 0
6100 7500 0
6300 7500 0
6500 7500 0
6700 7500 0
6900 7500 0
7100 7500 0
7300 7500 0
7500 7500 0
